^C:\$ECLIPSE32BIT\ECLIPSEWORKSPACE32BIT\DOME\DOMENATIVEPLUGINCODE\MATLABPLUGINNEW\R14_RELEASE\JNIHELPER.SBR|C:\$ECLIPSE32BIT\ECLIPSEWORKSPACE32BIT\DOME\DOMENATIVEPLUGINCODE\MATLABPLUGINNEW\R14_RELEASE\MATLABDATA.SBR|C:\$ECLIPSE32BIT\ECLIPSEWORKSPACE32BIT\DOME\DOMENATIVEPLUGINCODE\MATLABPLUGINNEW\R14_RELEASE\MATLABDELEGATE.SBR|C:\$ECLIPSE32BIT\ECLIPSEWORKSPACE32BIT\DOME\DOMENATIVEPLUGINCODE\MATLABPLUGINNEW\R14_RELEASE\MATLABMODEL.SBR|C:\$ECLIPSE32BIT\ECLIPSEWORKSPACE32BIT\DOME\DOMENATIVEPLUGINCODE\MATLABPLUGINNEW\R14_RELEASE\MATLABPLUGINCALLER.SBR
C:\WINDOWS\SYSTEM32\TZRES.DLL
C:\$ECLIPSE32BIT\ECLIPSEWORKSPACE32BIT\DOME\DOMENATIVEPLUGINCODE\MATLABPLUGINNEW\R14_RELEASE\JNIHELPER.SBR
C:\$ECLIPSE32BIT\ECLIPSEWORKSPACE32BIT\DOME\DOMENATIVEPLUGINCODE\MATLABPLUGINNEW\R14_RELEASE\MATLABDATA.SBR
C:\$ECLIPSE32BIT\ECLIPSEWORKSPACE32BIT\DOME\DOMENATIVEPLUGINCODE\MATLABPLUGINNEW\R14_RELEASE\MATLABDELEGATE.SBR
C:\$ECLIPSE32BIT\ECLIPSEWORKSPACE32BIT\DOME\DOMENATIVEPLUGINCODE\MATLABPLUGINNEW\R14_RELEASE\MATLABMODEL.SBR
C:\$ECLIPSE32BIT\ECLIPSEWORKSPACE32BIT\DOME\DOMENATIVEPLUGINCODE\MATLABPLUGINNEW\R14_RELEASE\MATLABPLUGINCALLER.SBR
