^C:\$ECLIPSE32BIT\ECLIPSEWORKSPACE32BIT\DOME\DOMENATIVEPLUGINCODE\MATLABPLUGINNEW\JNIHELPER.CPP|C:\$ECLIPSE32BIT\ECLIPSEWORKSPACE32BIT\DOME\DOMENATIVEPLUGINCODE\MATLABPLUGINNEW\MATLABDATA.CPP|C:\$ECLIPSE32BIT\ECLIPSEWORKSPACE32BIT\DOME\DOMENATIVEPLUGINCODE\MATLABPLUGINNEW\MATLABDELEGATE.CPP|C:\$ECLIPSE32BIT\ECLIPSEWORKSPACE32BIT\DOME\DOMENATIVEPLUGINCODE\MATLABPLUGINNEW\MATLABMODEL.CPP|C:\$ECLIPSE32BIT\ECLIPSEWORKSPACE32BIT\DOME\DOMENATIVEPLUGINCODE\MATLABPLUGINNEW\MATLABPLUGINCALLER.CPP
C:\$ECLIPSE32BIT\ECLIPSEWORKSPACE32BIT\DOME\DOMENATIVEPLUGINCODE\MATLABPLUGINNEW\R14_RELEASE\JNIHELPER.SBR
C:\$ECLIPSE32BIT\ECLIPSEWORKSPACE32BIT\DOME\DOMENATIVEPLUGINCODE\MATLABPLUGINNEW\R14_RELEASE\MATLABDATA.SBR
C:\$ECLIPSE32BIT\ECLIPSEWORKSPACE32BIT\DOME\DOMENATIVEPLUGINCODE\MATLABPLUGINNEW\R14_RELEASE\MATLABDELEGATE.SBR
C:\$ECLIPSE32BIT\ECLIPSEWORKSPACE32BIT\DOME\DOMENATIVEPLUGINCODE\MATLABPLUGINNEW\R14_RELEASE\MATLABMODEL.SBR
C:\$ECLIPSE32BIT\ECLIPSEWORKSPACE32BIT\DOME\DOMENATIVEPLUGINCODE\MATLABPLUGINNEW\R14_RELEASE\MATLABPLUGINCALLER.SBR
C:\$ECLIPSE32BIT\ECLIPSEWORKSPACE32BIT\DOME\DOMENATIVEPLUGINCODE\MATLABPLUGINNEW\R14_RELEASE\MATLABPLUGINCALLER.OBJ
C:\$ECLIPSE32BIT\ECLIPSEWORKSPACE32BIT\DOME\DOMENATIVEPLUGINCODE\MATLABPLUGINNEW\R14_RELEASE\MATLABMODEL.OBJ
C:\$ECLIPSE32BIT\ECLIPSEWORKSPACE32BIT\DOME\DOMENATIVEPLUGINCODE\MATLABPLUGINNEW\R14_RELEASE\MATLABDELEGATE.OBJ
C:\$ECLIPSE32BIT\ECLIPSEWORKSPACE32BIT\DOME\DOMENATIVEPLUGINCODE\MATLABPLUGINNEW\R14_RELEASE\MATLABDATA.OBJ
C:\$ECLIPSE32BIT\ECLIPSEWORKSPACE32BIT\DOME\DOMENATIVEPLUGINCODE\MATLABPLUGINNEW\R14_RELEASE\JNIHELPER.OBJ
^C:\$ECLIPSE32BIT\ECLIPSEWORKSPACE32BIT\DOME\DOMENATIVEPLUGINCODE\MATLABPLUGINNEW\JNIHELPER.CPP
C:\$ECLIPSE32BIT\ECLIPSEWORKSPACE32BIT\DOME\DOMENATIVEPLUGINCODE\MATLABPLUGINNEW\R14_RELEASE\VC100.PDB
^C:\$ECLIPSE32BIT\ECLIPSEWORKSPACE32BIT\DOME\DOMENATIVEPLUGINCODE\MATLABPLUGINNEW\MATLABDATA.CPP
C:\$ECLIPSE32BIT\ECLIPSEWORKSPACE32BIT\DOME\DOMENATIVEPLUGINCODE\MATLABPLUGINNEW\R14_RELEASE\VC100.PDB
^C:\$ECLIPSE32BIT\ECLIPSEWORKSPACE32BIT\DOME\DOMENATIVEPLUGINCODE\MATLABPLUGINNEW\MATLABDELEGATE.CPP
C:\$ECLIPSE32BIT\ECLIPSEWORKSPACE32BIT\DOME\DOMENATIVEPLUGINCODE\MATLABPLUGINNEW\R14_RELEASE\VC100.PDB
^C:\$ECLIPSE32BIT\ECLIPSEWORKSPACE32BIT\DOME\DOMENATIVEPLUGINCODE\MATLABPLUGINNEW\MATLABMODEL.CPP
C:\$ECLIPSE32BIT\ECLIPSEWORKSPACE32BIT\DOME\DOMENATIVEPLUGINCODE\MATLABPLUGINNEW\R14_RELEASE\VC100.PDB
^C:\$ECLIPSE32BIT\ECLIPSEWORKSPACE32BIT\DOME\DOMENATIVEPLUGINCODE\MATLABPLUGINNEW\MATLABPLUGINCALLER.CPP
C:\$ECLIPSE32BIT\ECLIPSEWORKSPACE32BIT\DOME\DOMENATIVEPLUGINCODE\MATLABPLUGINNEW\R14_RELEASE\VC100.PDB
