^C:\$ECLIPSE32BIT\ECLIPSEWORKSPACE32BIT\DOME\DOMENATIVEPLUGINCODE\DOMEPLUGINNEW\RELEASE\DOMEPLUGIN.LIB|C:\$ECLIPSE32BIT\ECLIPSEWORKSPACE32BIT\DOME\DOMENATIVEPLUGINCODE\MATLABPLUGINNEW\R12_RELEASE\JNIHELPER.OBJ|C:\$ECLIPSE32BIT\ECLIPSEWORKSPACE32BIT\DOME\DOMENATIVEPLUGINCODE\MATLABPLUGINNEW\R12_RELEASE\MATLABDATA.OBJ|C:\$ECLIPSE32BIT\ECLIPSEWORKSPACE32BIT\DOME\DOMENATIVEPLUGINCODE\MATLABPLUGINNEW\R12_RELEASE\MATLABDELEGATE.OBJ|C:\$ECLIPSE32BIT\ECLIPSEWORKSPACE32BIT\DOME\DOMENATIVEPLUGINCODE\MATLABPLUGINNEW\R12_RELEASE\MATLABMODEL.OBJ|C:\$ECLIPSE32BIT\ECLIPSEWORKSPACE32BIT\DOME\DOMENATIVEPLUGINCODE\MATLABPLUGINNEW\R12_RELEASE\MATLABPLUGINCALLER.OBJ
C:\PROGRAM FILES (X86)\MICROSOFT SDKS\WINDOWS\V7.0A\LIB\OLE32.LIB
C:\$ECLIPSE32BIT\ECLIPSEWORKSPACE32BIT\DOME\DOMENATIVEPLUGINCODE\MATLABPLUGINNEW\R12_MATLABLIB\MSVC60\LIBMX.LIB
C:\$ECLIPSE32BIT\ECLIPSEWORKSPACE32BIT\DOME\DOMENATIVEPLUGINCODE\MATLABPLUGINNEW\R12_MATLABLIB\MSVC60\LIBMAT.LIB
C:\$ECLIPSE32BIT\ECLIPSEWORKSPACE32BIT\DOME\DOMENATIVEPLUGINCODE\MATLABPLUGINNEW\R12_MATLABLIB\MSVC60\LIBMATLB.LIB
C:\$ECLIPSE32BIT\ECLIPSEWORKSPACE32BIT\DOME\DOMENATIVEPLUGINCODE\MATLABPLUGINNEW\R12_MATLABLIB\MSVC60\LIBMATLBMX.LIB
C:\$ECLIPSE32BIT\ECLIPSEWORKSPACE32BIT\DOME\DOMENATIVEPLUGINCODE\MATLABPLUGINNEW\R12_MATLABLIB\MSVC60\LIBMEX.LIB
C:\$ECLIPSE32BIT\ECLIPSEWORKSPACE32BIT\DOME\DOMENATIVEPLUGINCODE\MATLABPLUGINNEW\R12_MATLABLIB\MSVC60\LIBMWARPACK.LIB
C:\$ECLIPSE32BIT\ECLIPSEWORKSPACE32BIT\DOME\DOMENATIVEPLUGINCODE\MATLABPLUGINNEW\R12_MATLABLIB\MSVC60\LIBMWLAPACK.LIB
C:\$ECLIPSE32BIT\ECLIPSEWORKSPACE32BIT\DOME\DOMENATIVEPLUGINCODE\MATLABPLUGINNEW\R12_MATLABLIB\MSVC60\LIBENG.LIB
C:\$ECLIPSE32BIT\ECLIPSEWORKSPACE32BIT\DOME\DOMENATIVEPLUGINCODE\MATLABPLUGINNEW\R12_RELEASE\JNIHELPER.OBJ
C:\$ECLIPSE32BIT\ECLIPSEWORKSPACE32BIT\DOME\DOMENATIVEPLUGINCODE\MATLABPLUGINNEW\R12_RELEASE\MATLABDATA.OBJ
C:\$ECLIPSE32BIT\ECLIPSEWORKSPACE32BIT\DOME\DOMENATIVEPLUGINCODE\MATLABPLUGINNEW\R12_RELEASE\MATLABDELEGATE.OBJ
C:\$ECLIPSE32BIT\ECLIPSEWORKSPACE32BIT\DOME\DOMENATIVEPLUGINCODE\MATLABPLUGINNEW\R12_RELEASE\MATLABMODEL.OBJ
C:\$ECLIPSE32BIT\ECLIPSEWORKSPACE32BIT\DOME\DOMENATIVEPLUGINCODE\MATLABPLUGINNEW\R12_RELEASE\MATLABPLUGINCALLER.OBJ
C:\$ECLIPSE32BIT\ECLIPSEWORKSPACE32BIT\DOME\DOMENATIVEPLUGINCODE\DOMEPLUGINNEW\RELEASE\DOMEPLUGIN.LIB
C:\WINDOWS\GLOBALIZATION\SORTING\SORTDEFAULT.NLS
C:\PROGRAM FILES (X86)\MICROSOFT SDKS\WINDOWS\V7.0A\LIB\UUID.LIB
C:\PROGRAM FILES (X86)\MICROSOFT VISUAL STUDIO 10.0\VC\LIB\MSVCPRT.LIB
C:\PROGRAM FILES (X86)\MICROSOFT VISUAL STUDIO 10.0\VC\LIB\MSVCRT.LIB
C:\PROGRAM FILES (X86)\MICROSOFT VISUAL STUDIO 10.0\VC\LIB\OLDNAMES.LIB
C:\PROGRAM FILES (X86)\MICROSOFT SDKS\WINDOWS\V7.0A\LIB\KERNEL32.LIB
C:\WINDOWS\SYSTEM32\TZRES.DLL
C:\PROGRAM FILES (X86)\MICROSOFT VISUAL STUDIO 10.0\VC\BIN\1033\LINKUI.DLL
C:\$ECLIPSE32BIT\ECLIPSEWORKSPACE32BIT\DOME\DOMENATIVEPLUGINCODE\MATLABPLUGINNEW\R12_RELEASE\MATLABPLUGINR12.EXP
