^C:\ADIGITALMFG\DIGITALMFGCOMMONS-DOME\DOMENATIVEPLUGINCODE\EXCELPLUGINNEW\2KXP_RELEASE\EXCEL9.OBJ|C:\ADIGITALMFG\DIGITALMFGCOMMONS-DOME\DOMENATIVEPLUGINCODE\EXCELPLUGINNEW\2KXP_RELEASE\EXCELDATA.OBJ|C:\ADIGITALMFG\DIGITALMFGCOMMONS-DOME\DOMENATIVEPLUGINCODE\EXCELPLUGINNEW\2KXP_RELEASE\EXCELDELEGATE.OBJ|C:\ADIGITALMFG\DIGITALMFGCOMMONS-DOME\DOMENATIVEPLUGINCODE\EXCELPLUGINNEW\2KXP_RELEASE\EXCELMODEL.OBJ|C:\ADIGITALMFG\DIGITALMFGCOMMONS-DOME\DOMENATIVEPLUGINCODE\EXCELPLUGINNEW\2KXP_RELEASE\EXCELPLUGINCALLER.OBJ|C:\ADIGITALMFG\DIGITALMFGCOMMONS-DOME\DOMENATIVEPLUGINCODE\EXCELPLUGINNEW\2KXP_RELEASE\JNIHELPER.OBJ|C:\ADIGITALMFG\DIGITALMFGCOMMONS-DOME\DOMENATIVEPLUGINCODE\EXCELPLUGINNEW\2KXP_RELEASE\STDAFX.OBJ
C:\ADIGITALMFG\DIGITALMFGCOMMONS-DOME\DOMENATIVEPLUGINCODE\EXCELPLUGINNEW\2KXP_RELEASE\EXCELPLUGIN2KXP.DLL
C:\ADIGITALMFG\DIGITALMFGCOMMONS-DOME\DOMENATIVEPLUGINCODE\EXCELPLUGINNEW\2KXP_RELEASE\EXCELPLUGIN.DLL.INTERMEDIATE.MANIFEST
