^D:\WORK\DOME\NATIVEPLUGINCODE\SOLIDWORKSPLUGIN\STDAFX.CPP
C:\PROGRAM FILES (X86)\MICROSOFT VISUAL STUDIO 10.0\VC\BIN\1033\CLUI.DLL
C:\WINDOWS\SYSTEM32\RSAENH.DLL
C:\WINDOWS\SYSTEM32\CRYPT32.DLL
D:\WORK\DOME\NATIVEPLUGINCODE\SOLIDWORKSPLUGIN\STDAFX.H
D:\WORK\DOME\NATIVEPLUGINCODE\SOLIDWORKSPLUGIN\TARGETVER.H
C:\PROGRAM FILES (X86)\MICROSOFT SDKS\WINDOWS\V7.0A\INCLUDE\SDKDDKVER.H
C:\PROGRAM FILES (X86)\MICROSOFT SDKS\WINDOWS\V7.0A\INCLUDE\WINDOWS.H
C:\PROGRAM FILES (X86)\MICROSOFT VISUAL STUDIO 10.0\VC\INCLUDE\EXCPT.H
C:\PROGRAM FILES (X86)\MICROSOFT VISUAL STUDIO 10.0\VC\INCLUDE\CRTDEFS.H
C:\PROGRAM FILES (X86)\MICROSOFT VISUAL STUDIO 10.0\VC\INCLUDE\SAL.H
C:\PROGRAM FILES (X86)\MICROSOFT VISUAL STUDIO 10.0\VC\INCLUDE\CODEANALYSIS\SOURCEANNOTATIONS.H
C:\PROGRAM FILES (X86)\MICROSOFT VISUAL STUDIO 10.0\VC\INCLUDE\VADEFS.H
C:\PROGRAM FILES (X86)\MICROSOFT VISUAL STUDIO 10.0\VC\INCLUDE\STDARG.H
C:\PROGRAM FILES (X86)\MICROSOFT SDKS\WINDOWS\V7.0A\INCLUDE\WINDEF.H
C:\PROGRAM FILES (X86)\MICROSOFT SDKS\WINDOWS\V7.0A\INCLUDE\WINNT.H
C:\PROGRAM FILES (X86)\MICROSOFT VISUAL STUDIO 10.0\VC\INCLUDE\CTYPE.H
C:\PROGRAM FILES (X86)\MICROSOFT SDKS\WINDOWS\V7.0A\INCLUDE\SPECSTRINGS.H
C:\PROGRAM FILES (X86)\MICROSOFT SDKS\WINDOWS\V7.0A\INCLUDE\SAL_SUPP.H
C:\PROGRAM FILES (X86)\MICROSOFT SDKS\WINDOWS\V7.0A\INCLUDE\SPECSTRINGS_SUPP.H
C:\PROGRAM FILES (X86)\MICROSOFT SDKS\WINDOWS\V7.0A\INCLUDE\SPECSTRINGS_STRICT.H
C:\PROGRAM FILES (X86)\MICROSOFT SDKS\WINDOWS\V7.0A\INCLUDE\SPECSTRINGS_UNDEF.H
C:\PROGRAM FILES (X86)\MICROSOFT SDKS\WINDOWS\V7.0A\INCLUDE\DRIVERSPECS.H
C:\PROGRAM FILES (X86)\MICROSOFT SDKS\WINDOWS\V7.0A\INCLUDE\SDV_DRIVERSPECS.H
C:\PROGRAM FILES (X86)\MICROSOFT SDKS\WINDOWS\V7.0A\INCLUDE\KERNELSPECS.H
C:\PROGRAM FILES (X86)\MICROSOFT SDKS\WINDOWS\V7.0A\INCLUDE\BASETSD.H
C:\PROGRAM FILES (X86)\MICROSOFT SDKS\WINDOWS\V7.0A\INCLUDE\GUIDDEF.H
C:\PROGRAM FILES (X86)\MICROSOFT VISUAL STUDIO 10.0\VC\INCLUDE\STRING.H
C:\PROGRAM FILES (X86)\MICROSOFT SDKS\WINDOWS\V7.0A\INCLUDE\PSHPACK4.H
C:\PROGRAM FILES (X86)\MICROSOFT SDKS\WINDOWS\V7.0A\INCLUDE\POPPACK.H
C:\PROGRAM FILES (X86)\MICROSOFT SDKS\WINDOWS\V7.0A\INCLUDE\PSHPACK2.H
C:\PROGRAM FILES (X86)\MICROSOFT SDKS\WINDOWS\V7.0A\INCLUDE\PSHPACK8.H
C:\PROGRAM FILES (X86)\MICROSOFT SDKS\WINDOWS\V7.0A\INCLUDE\KTMTYPES.H
C:\PROGRAM FILES (X86)\MICROSOFT SDKS\WINDOWS\V7.0A\INCLUDE\WINBASE.H
C:\PROGRAM FILES (X86)\MICROSOFT SDKS\WINDOWS\V7.0A\INCLUDE\WINERROR.H
C:\PROGRAM FILES (X86)\MICROSOFT SDKS\WINDOWS\V7.0A\INCLUDE\WINGDI.H
C:\PROGRAM FILES (X86)\MICROSOFT SDKS\WINDOWS\V7.0A\INCLUDE\PSHPACK1.H
C:\PROGRAM FILES (X86)\MICROSOFT SDKS\WINDOWS\V7.0A\INCLUDE\WINUSER.H
C:\PROGRAM FILES (X86)\MICROSOFT SDKS\WINDOWS\V7.0A\INCLUDE\TVOUT.H
C:\PROGRAM FILES (X86)\MICROSOFT SDKS\WINDOWS\V7.0A\INCLUDE\WINNLS.H
C:\PROGRAM FILES (X86)\MICROSOFT SDKS\WINDOWS\V7.0A\INCLUDE\WINCON.H
C:\PROGRAM FILES (X86)\MICROSOFT SDKS\WINDOWS\V7.0A\INCLUDE\WINVER.H
C:\PROGRAM FILES (X86)\MICROSOFT SDKS\WINDOWS\V7.0A\INCLUDE\VERRSRC.H
C:\PROGRAM FILES (X86)\MICROSOFT SDKS\WINDOWS\V7.0A\INCLUDE\WINREG.H
C:\PROGRAM FILES (X86)\MICROSOFT SDKS\WINDOWS\V7.0A\INCLUDE\REASON.H
C:\PROGRAM FILES (X86)\MICROSOFT SDKS\WINDOWS\V7.0A\INCLUDE\WINNETWK.H
C:\PROGRAM FILES (X86)\MICROSOFT SDKS\WINDOWS\V7.0A\INCLUDE\WNNC.H
C:\PROGRAM FILES (X86)\MICROSOFT SDKS\WINDOWS\V7.0A\INCLUDE\STRALIGN.H
C:\PROGRAM FILES (X86)\MICROSOFT SDKS\WINDOWS\V7.0A\INCLUDE\WINSVC.H
C:\PROGRAM FILES (X86)\MICROSOFT SDKS\WINDOWS\V7.0A\INCLUDE\MCX.H
C:\PROGRAM FILES (X86)\MICROSOFT SDKS\WINDOWS\V7.0A\INCLUDE\IMM.H
C:\PROGRAM FILES (X86)\MICROSOFT SDKS\WINDOWS\V7.0A\INCLUDE\IME_CMODES.H
C:\PROGRAM FILES (X86)\MICROSOFT VISUAL STUDIO 10.0\COMMON7\IDE\MSPDBSRV.EXE
^D:\WORK\DOME\NATIVEPLUGINCODE\SOLIDWORKSPLUGINNEW\SWDISP.CPP
D:\WORK\DOME\NATIVEPLUGINCODE\SOLIDWORKSPLUGIN\DEBUG\SOLIDWORKSPLUGIN.PCH
D:\WORK\DOME\NATIVEPLUGINCODE\SOLIDWORKSPLUGINNEW\SWDISP.H
C:\WINDDK\7600.16385.1\INC\MFC42\AFXDISP.H
C:\WINDDK\7600.16385.1\INC\MFC42\AFXWIN.H
C:\WINDDK\7600.16385.1\INC\MFC42\AFX.H
C:\WINDDK\7600.16385.1\INC\MFC42\AFXVER_.H
C:\WINDDK\7600.16385.1\INC\MFC42\AFXV_W32.H
C:\PROGRAM FILES (X86)\MICROSOFT SDKS\WINDOWS\V7.0A\INCLUDE\WINSOCK2.H
C:\PROGRAM FILES (X86)\MICROSOFT SDKS\WINDOWS\V7.0A\INCLUDE\WINDOWS.H
C:\PROGRAM FILES (X86)\MICROSOFT VISUAL STUDIO 10.0\VC\INCLUDE\EXCPT.H
C:\PROGRAM FILES (X86)\MICROSOFT VISUAL STUDIO 10.0\VC\INCLUDE\CRTDEFS.H
C:\PROGRAM FILES (X86)\MICROSOFT VISUAL STUDIO 10.0\VC\INCLUDE\SAL.H
C:\PROGRAM FILES (X86)\MICROSOFT VISUAL STUDIO 10.0\VC\INCLUDE\CODEANALYSIS\SOURCEANNOTATIONS.H
C:\PROGRAM FILES (X86)\MICROSOFT VISUAL STUDIO 10.0\VC\INCLUDE\VADEFS.H
C:\PROGRAM FILES (X86)\MICROSOFT VISUAL STUDIO 10.0\VC\INCLUDE\STDARG.H
C:\PROGRAM FILES (X86)\MICROSOFT SDKS\WINDOWS\V7.0A\INCLUDE\WINDEF.H
C:\PROGRAM FILES (X86)\MICROSOFT SDKS\WINDOWS\V7.0A\INCLUDE\WINNT.H
C:\PROGRAM FILES (X86)\MICROSOFT VISUAL STUDIO 10.0\VC\INCLUDE\CTYPE.H
C:\PROGRAM FILES (X86)\MICROSOFT SDKS\WINDOWS\V7.0A\INCLUDE\SPECSTRINGS.H
C:\PROGRAM FILES (X86)\MICROSOFT SDKS\WINDOWS\V7.0A\INCLUDE\SAL_SUPP.H
C:\PROGRAM FILES (X86)\MICROSOFT SDKS\WINDOWS\V7.0A\INCLUDE\SPECSTRINGS_SUPP.H
C:\PROGRAM FILES (X86)\MICROSOFT SDKS\WINDOWS\V7.0A\INCLUDE\SPECSTRINGS_STRICT.H
C:\PROGRAM FILES (X86)\MICROSOFT SDKS\WINDOWS\V7.0A\INCLUDE\SPECSTRINGS_UNDEF.H
C:\PROGRAM FILES (X86)\MICROSOFT SDKS\WINDOWS\V7.0A\INCLUDE\DRIVERSPECS.H
C:\PROGRAM FILES (X86)\MICROSOFT SDKS\WINDOWS\V7.0A\INCLUDE\SDV_DRIVERSPECS.H
C:\PROGRAM FILES (X86)\MICROSOFT SDKS\WINDOWS\V7.0A\INCLUDE\KERNELSPECS.H
C:\PROGRAM FILES (X86)\MICROSOFT SDKS\WINDOWS\V7.0A\INCLUDE\BASETSD.H
C:\PROGRAM FILES (X86)\MICROSOFT SDKS\WINDOWS\V7.0A\INCLUDE\GUIDDEF.H
C:\PROGRAM FILES (X86)\MICROSOFT VISUAL STUDIO 10.0\VC\INCLUDE\STRING.H
C:\PROGRAM FILES (X86)\MICROSOFT SDKS\WINDOWS\V7.0A\INCLUDE\PSHPACK4.H
C:\PROGRAM FILES (X86)\MICROSOFT SDKS\WINDOWS\V7.0A\INCLUDE\POPPACK.H
C:\PROGRAM FILES (X86)\MICROSOFT SDKS\WINDOWS\V7.0A\INCLUDE\PSHPACK2.H
C:\PROGRAM FILES (X86)\MICROSOFT SDKS\WINDOWS\V7.0A\INCLUDE\PSHPACK8.H
C:\PROGRAM FILES (X86)\MICROSOFT SDKS\WINDOWS\V7.0A\INCLUDE\KTMTYPES.H
C:\PROGRAM FILES (X86)\MICROSOFT SDKS\WINDOWS\V7.0A\INCLUDE\WINBASE.H
C:\PROGRAM FILES (X86)\MICROSOFT SDKS\WINDOWS\V7.0A\INCLUDE\WINERROR.H
C:\PROGRAM FILES (X86)\MICROSOFT SDKS\WINDOWS\V7.0A\INCLUDE\WINGDI.H
C:\PROGRAM FILES (X86)\MICROSOFT SDKS\WINDOWS\V7.0A\INCLUDE\PSHPACK1.H
C:\PROGRAM FILES (X86)\MICROSOFT SDKS\WINDOWS\V7.0A\INCLUDE\WINUSER.H
C:\PROGRAM FILES (X86)\MICROSOFT SDKS\WINDOWS\V7.0A\INCLUDE\TVOUT.H
C:\PROGRAM FILES (X86)\MICROSOFT SDKS\WINDOWS\V7.0A\INCLUDE\WINNLS.H
C:\PROGRAM FILES (X86)\MICROSOFT SDKS\WINDOWS\V7.0A\INCLUDE\WINCON.H
C:\PROGRAM FILES (X86)\MICROSOFT SDKS\WINDOWS\V7.0A\INCLUDE\WINVER.H
C:\PROGRAM FILES (X86)\MICROSOFT SDKS\WINDOWS\V7.0A\INCLUDE\VERRSRC.H
C:\PROGRAM FILES (X86)\MICROSOFT SDKS\WINDOWS\V7.0A\INCLUDE\WINREG.H
C:\PROGRAM FILES (X86)\MICROSOFT SDKS\WINDOWS\V7.0A\INCLUDE\REASON.H
C:\PROGRAM FILES (X86)\MICROSOFT SDKS\WINDOWS\V7.0A\INCLUDE\WINNETWK.H
C:\PROGRAM FILES (X86)\MICROSOFT SDKS\WINDOWS\V7.0A\INCLUDE\WNNC.H
C:\PROGRAM FILES (X86)\MICROSOFT SDKS\WINDOWS\V7.0A\INCLUDE\STRALIGN.H
C:\PROGRAM FILES (X86)\MICROSOFT SDKS\WINDOWS\V7.0A\INCLUDE\WINSVC.H
C:\PROGRAM FILES (X86)\MICROSOFT SDKS\WINDOWS\V7.0A\INCLUDE\MCX.H
C:\PROGRAM FILES (X86)\MICROSOFT SDKS\WINDOWS\V7.0A\INCLUDE\IMM.H
C:\PROGRAM FILES (X86)\MICROSOFT SDKS\WINDOWS\V7.0A\INCLUDE\IME_CMODES.H
C:\PROGRAM FILES (X86)\MICROSOFT SDKS\WINDOWS\V7.0A\INCLUDE\WS2DEF.H
C:\PROGRAM FILES (X86)\MICROSOFT SDKS\WINDOWS\V7.0A\INCLUDE\INADDR.H
C:\PROGRAM FILES (X86)\MICROSOFT SDKS\WINDOWS\V7.0A\INCLUDE\QOS.H
C:\PROGRAM FILES (X86)\MICROSOFT SDKS\WINDOWS\V7.0A\INCLUDE\ZMOUSE.H
C:\PROGRAM FILES (X86)\MICROSOFT SDKS\WINDOWS\V7.0A\INCLUDE\COMMCTRL.H
C:\PROGRAM FILES (X86)\MICROSOFT SDKS\WINDOWS\V7.0A\INCLUDE\PRSHT.H
C:\PROGRAM FILES (X86)\MICROSOFT VISUAL STUDIO 10.0\VC\INCLUDE\TCHAR.H
C:\PROGRAM FILES (X86)\MICROSOFT VISUAL STUDIO 10.0\VC\INCLUDE\WCHAR.H
C:\PROGRAM FILES (X86)\MICROSOFT VISUAL STUDIO 10.0\VC\INCLUDE\SWPRINTF.INL
C:\PROGRAM FILES (X86)\MICROSOFT VISUAL STUDIO 10.0\VC\INCLUDE\WTIME.INL
C:\PROGRAM FILES (X86)\MICROSOFT VISUAL STUDIO 10.0\VC\INCLUDE\STDIO.H
C:\PROGRAM FILES (X86)\MICROSOFT VISUAL STUDIO 10.0\VC\INCLUDE\STDLIB.H
C:\PROGRAM FILES (X86)\MICROSOFT VISUAL STUDIO 10.0\VC\INCLUDE\LIMITS.H
C:\PROGRAM FILES (X86)\MICROSOFT VISUAL STUDIO 10.0\VC\INCLUDE\TIME.H
C:\PROGRAM FILES (X86)\MICROSOFT VISUAL STUDIO 10.0\VC\INCLUDE\TIME.INL
C:\PROGRAM FILES (X86)\MICROSOFT VISUAL STUDIO 10.0\VC\INCLUDE\STDDEF.H
C:\PROGRAM FILES (X86)\MICROSOFT VISUAL STUDIO 10.0\VC\INCLUDE\CRTDBG.H
C:\WINDDK\7600.16385.1\INC\MFC42\AFXCOLL.H
C:\WINDDK\7600.16385.1\INC\MFC42\AFXSTAT_.H
C:\WINDDK\7600.16385.1\INC\MFC42\AFXTLS_.H
C:\PROGRAM FILES (X86)\MICROSOFT SDKS\WINDOWS\V7.0A\INCLUDE\RPCSAL.H
C:\PROGRAM FILES (X86)\MICROSOFT SDKS\WINDOWS\V7.0A\INCLUDE\SHELLAPI.H
C:\WINDDK\7600.16385.1\INC\MFC42\AFXRES.H
C:\WINDDK\7600.16385.1\INC\MFC42\AFXMSG_.H
C:\WINDDK\7600.16385.1\INC\MFC42\AFXDD_.H
C:\PROGRAM FILES (X86)\MICROSOFT SDKS\WINDOWS\V7.0A\INCLUDE\OBJBASE.H
C:\PROGRAM FILES (X86)\MICROSOFT SDKS\WINDOWS\V7.0A\INCLUDE\RPC.H
C:\PROGRAM FILES (X86)\MICROSOFT SDKS\WINDOWS\V7.0A\INCLUDE\RPCDCE.H
C:\PROGRAM FILES (X86)\MICROSOFT SDKS\WINDOWS\V7.0A\INCLUDE\RPCDCEP.H
C:\PROGRAM FILES (X86)\MICROSOFT SDKS\WINDOWS\V7.0A\INCLUDE\RPCNSI.H
C:\PROGRAM FILES (X86)\MICROSOFT SDKS\WINDOWS\V7.0A\INCLUDE\RPCNTERR.H
C:\PROGRAM FILES (X86)\MICROSOFT SDKS\WINDOWS\V7.0A\INCLUDE\RPCASYNC.H
C:\PROGRAM FILES (X86)\MICROSOFT SDKS\WINDOWS\V7.0A\INCLUDE\RPCNDR.H
C:\PROGRAM FILES (X86)\MICROSOFT SDKS\WINDOWS\V7.0A\INCLUDE\RPCNSIP.H
C:\PROGRAM FILES (X86)\MICROSOFT SDKS\WINDOWS\V7.0A\INCLUDE\WTYPES.H
C:\PROGRAM FILES (X86)\MICROSOFT SDKS\WINDOWS\V7.0A\INCLUDE\UNKNWN.H
C:\PROGRAM FILES (X86)\MICROSOFT SDKS\WINDOWS\V7.0A\INCLUDE\OLE2.H
C:\PROGRAM FILES (X86)\MICROSOFT SDKS\WINDOWS\V7.0A\INCLUDE\OLEAUTO.H
C:\PROGRAM FILES (X86)\MICROSOFT SDKS\WINDOWS\V7.0A\INCLUDE\OAIDL.H
C:\PROGRAM FILES (X86)\MICROSOFT SDKS\WINDOWS\V7.0A\INCLUDE\OBJIDL.H
C:\PROGRAM FILES (X86)\MICROSOFT SDKS\WINDOWS\V7.0A\INCLUDE\OLEIDL.H
C:\PROGRAM FILES (X86)\MICROSOFT SDKS\WINDOWS\V7.0A\INCLUDE\CGUID.H
C:\PROGRAM FILES (X86)\MICROSOFT SDKS\WINDOWS\V7.0A\INCLUDE\URLMON.H
C:\PROGRAM FILES (X86)\MICROSOFT SDKS\WINDOWS\V7.0A\INCLUDE\SERVPROV.H
C:\PROGRAM FILES (X86)\MICROSOFT SDKS\WINDOWS\V7.0A\INCLUDE\MSXML.H
C:\PROGRAM FILES (X86)\MICROSOFT SDKS\WINDOWS\V7.0A\INCLUDE\PROPIDL.H
C:\PROGRAM FILES (X86)\MICROSOFT SDKS\WINDOWS\V7.0A\INCLUDE\OLECTL.H
C:\PROGRAM FILES (X86)\MICROSOFT SDKS\WINDOWS\V7.0A\INCLUDE\OCIDL.H
C:\PROGRAM FILES (X86)\MICROSOFT SDKS\WINDOWS\V7.0A\INCLUDE\SHLOBJ.H
C:\PROGRAM FILES (X86)\MICROSOFT SDKS\WINDOWS\V7.0A\INCLUDE\SHLGUID.H
C:\PROGRAM FILES (X86)\MICROSOFT SDKS\WINDOWS\V7.0A\INCLUDE\ISGUIDS.H
C:\PROGRAM FILES (X86)\MICROSOFT SDKS\WINDOWS\V7.0A\INCLUDE\EXDISP.H
C:\PROGRAM FILES (X86)\MICROSOFT SDKS\WINDOWS\V7.0A\INCLUDE\DOCOBJ.H
C:\PROGRAM FILES (X86)\MICROSOFT SDKS\WINDOWS\V7.0A\INCLUDE\SHLDISP.H
C:\PROGRAM FILES (X86)\MICROSOFT SDKS\WINDOWS\V7.0A\INCLUDE\KNOWNFOLDERS.H
C:\PROGRAM FILES (X86)\MICROSOFT SDKS\WINDOWS\V7.0A\INCLUDE\SHTYPES.H
C:\PROGRAM FILES (X86)\MICROSOFT SDKS\WINDOWS\V7.0A\INCLUDE\SHOBJIDL.H
C:\PROGRAM FILES (X86)\MICROSOFT SDKS\WINDOWS\V7.0A\INCLUDE\COMCAT.H
C:\PROGRAM FILES (X86)\MICROSOFT SDKS\WINDOWS\V7.0A\INCLUDE\PROPSYS.H
C:\PROGRAM FILES (X86)\MICROSOFT SDKS\WINDOWS\V7.0A\INCLUDE\STRUCTUREDQUERYCONDITION.H
C:\PROGRAM FILES (X86)\MICROSOFT SDKS\WINDOWS\V7.0A\INCLUDE\PROPKEYDEF.H
C:\PROGRAM FILES (X86)\MICROSOFT SDKS\WINDOWS\V7.0A\INCLUDE\OBJECTARRAY.H
C:\PROGRAM FILES (X86)\MICROSOFT SDKS\WINDOWS\V7.0A\INCLUDE\SHERRORS.H
^D:\WORK\DOME\NATIVEPLUGINCODE\SOLIDWORKSPLUGINNEW\SOLIDWORKSPLUGINCALLER.CPP
D:\WORK\DOME\NATIVEPLUGINCODE\SOLIDWORKSPLUGIN\DEBUG\SOLIDWORKSPLUGIN.PCH
C:\PROGRAM FILES (X86)\MICROSOFT VISUAL STUDIO 10.0\VC\INCLUDE\IOSTREAM
C:\PROGRAM FILES (X86)\MICROSOFT VISUAL STUDIO 10.0\VC\INCLUDE\ISTREAM
C:\PROGRAM FILES (X86)\MICROSOFT VISUAL STUDIO 10.0\VC\INCLUDE\OSTREAM
C:\PROGRAM FILES (X86)\MICROSOFT VISUAL STUDIO 10.0\VC\INCLUDE\IOS
C:\PROGRAM FILES (X86)\MICROSOFT VISUAL STUDIO 10.0\VC\INCLUDE\XLOCNUM
C:\PROGRAM FILES (X86)\MICROSOFT VISUAL STUDIO 10.0\VC\INCLUDE\CLIMITS
C:\PROGRAM FILES (X86)\MICROSOFT VISUAL STUDIO 10.0\VC\INCLUDE\YVALS.H
C:\PROGRAM FILES (X86)\MICROSOFT VISUAL STUDIO 10.0\VC\INCLUDE\CRTDEFS.H
C:\PROGRAM FILES (X86)\MICROSOFT VISUAL STUDIO 10.0\VC\INCLUDE\USE_ANSI.H
C:\PROGRAM FILES (X86)\MICROSOFT VISUAL STUDIO 10.0\VC\INCLUDE\LIMITS.H
C:\PROGRAM FILES (X86)\MICROSOFT VISUAL STUDIO 10.0\VC\INCLUDE\CMATH
C:\PROGRAM FILES (X86)\MICROSOFT VISUAL STUDIO 10.0\VC\INCLUDE\MATH.H
C:\PROGRAM FILES (X86)\MICROSOFT VISUAL STUDIO 10.0\VC\INCLUDE\CSTDIO
C:\PROGRAM FILES (X86)\MICROSOFT VISUAL STUDIO 10.0\VC\INCLUDE\STDIO.H
C:\PROGRAM FILES (X86)\MICROSOFT VISUAL STUDIO 10.0\VC\INCLUDE\SWPRINTF.INL
C:\PROGRAM FILES (X86)\MICROSOFT VISUAL STUDIO 10.0\VC\INCLUDE\CSTDLIB
C:\PROGRAM FILES (X86)\MICROSOFT VISUAL STUDIO 10.0\VC\INCLUDE\STDLIB.H
C:\PROGRAM FILES (X86)\MICROSOFT VISUAL STUDIO 10.0\VC\INCLUDE\STREAMBUF
C:\PROGRAM FILES (X86)\MICROSOFT VISUAL STUDIO 10.0\VC\INCLUDE\XIOSBASE
C:\PROGRAM FILES (X86)\MICROSOFT VISUAL STUDIO 10.0\VC\INCLUDE\XLOCALE
C:\PROGRAM FILES (X86)\MICROSOFT VISUAL STUDIO 10.0\VC\INCLUDE\CSTRING
C:\PROGRAM FILES (X86)\MICROSOFT VISUAL STUDIO 10.0\VC\INCLUDE\STDEXCEPT
C:\PROGRAM FILES (X86)\MICROSOFT VISUAL STUDIO 10.0\VC\INCLUDE\EXCEPTION
C:\PROGRAM FILES (X86)\MICROSOFT VISUAL STUDIO 10.0\VC\INCLUDE\XSTDDEF
C:\PROGRAM FILES (X86)\MICROSOFT VISUAL STUDIO 10.0\VC\INCLUDE\CSTDDEF
C:\PROGRAM FILES (X86)\MICROSOFT VISUAL STUDIO 10.0\VC\INCLUDE\STDDEF.H
C:\PROGRAM FILES (X86)\MICROSOFT VISUAL STUDIO 10.0\VC\INCLUDE\EH.H
C:\PROGRAM FILES (X86)\MICROSOFT VISUAL STUDIO 10.0\VC\INCLUDE\MALLOC.H
C:\PROGRAM FILES (X86)\MICROSOFT VISUAL STUDIO 10.0\VC\INCLUDE\XSTRING
C:\PROGRAM FILES (X86)\MICROSOFT VISUAL STUDIO 10.0\VC\INCLUDE\XMEMORY
C:\PROGRAM FILES (X86)\MICROSOFT VISUAL STUDIO 10.0\VC\INCLUDE\NEW
C:\PROGRAM FILES (X86)\MICROSOFT VISUAL STUDIO 10.0\VC\INCLUDE\XUTILITY
C:\PROGRAM FILES (X86)\MICROSOFT VISUAL STUDIO 10.0\VC\INCLUDE\UTILITY
C:\PROGRAM FILES (X86)\MICROSOFT VISUAL STUDIO 10.0\VC\INCLUDE\IOSFWD
C:\PROGRAM FILES (X86)\MICROSOFT VISUAL STUDIO 10.0\VC\INCLUDE\CWCHAR
C:\PROGRAM FILES (X86)\MICROSOFT VISUAL STUDIO 10.0\VC\INCLUDE\WCHAR.H
C:\PROGRAM FILES (X86)\MICROSOFT VISUAL STUDIO 10.0\VC\INCLUDE\WTIME.INL
C:\PROGRAM FILES (X86)\MICROSOFT VISUAL STUDIO 10.0\VC\INCLUDE\CRTDBG.H
C:\PROGRAM FILES (X86)\MICROSOFT VISUAL STUDIO 10.0\VC\INCLUDE\TYPE_TRAITS
C:\PROGRAM FILES (X86)\MICROSOFT VISUAL STUDIO 10.0\VC\INCLUDE\LIMITS
C:\PROGRAM FILES (X86)\MICROSOFT VISUAL STUDIO 10.0\VC\INCLUDE\YMATH.H
C:\PROGRAM FILES (X86)\MICROSOFT VISUAL STUDIO 10.0\VC\INCLUDE\CFLOAT
C:\PROGRAM FILES (X86)\MICROSOFT VISUAL STUDIO 10.0\VC\INCLUDE\FLOAT.H
C:\PROGRAM FILES (X86)\MICROSOFT VISUAL STUDIO 10.0\VC\INCLUDE\CRTWRN.H
C:\PROGRAM FILES (X86)\MICROSOFT VISUAL STUDIO 10.0\VC\INCLUDE\XTR1COMMON
C:\PROGRAM FILES (X86)\MICROSOFT VISUAL STUDIO 10.0\VC\INCLUDE\XFWRAP
C:\PROGRAM FILES (X86)\MICROSOFT VISUAL STUDIO 10.0\VC\INCLUDE\XFWRAP1
C:\PROGRAM FILES (X86)\MICROSOFT VISUAL STUDIO 10.0\VC\INCLUDE\XXTYPE_TRAITS
C:\PROGRAM FILES (X86)\MICROSOFT VISUAL STUDIO 10.0\VC\INCLUDE\TYPEINFO
C:\PROGRAM FILES (X86)\MICROSOFT VISUAL STUDIO 10.0\VC\INCLUDE\XLOCINFO
C:\PROGRAM FILES (X86)\MICROSOFT VISUAL STUDIO 10.0\VC\INCLUDE\XLOCINFO.H
C:\PROGRAM FILES (X86)\MICROSOFT VISUAL STUDIO 10.0\VC\INCLUDE\LOCALE.H
C:\PROGRAM FILES (X86)\MICROSOFT VISUAL STUDIO 10.0\VC\INCLUDE\XDEBUG
C:\PROGRAM FILES (X86)\MICROSOFT VISUAL STUDIO 10.0\VC\INCLUDE\SYSTEM_ERROR
C:\PROGRAM FILES (X86)\MICROSOFT VISUAL STUDIO 10.0\VC\INCLUDE\CERRNO
C:\PROGRAM FILES (X86)\MICROSOFT VISUAL STUDIO 10.0\VC\INCLUDE\ERRNO.H
C:\PROGRAM FILES (X86)\MICROSOFT VISUAL STUDIO 10.0\VC\INCLUDE\SHARE.H
C:\PROGRAM FILES (X86)\MICROSOFT VISUAL STUDIO 10.0\VC\INCLUDE\VECTOR
C:\PROGRAM FILES (X86)\MICROSOFT VISUAL STUDIO 10.0\VC\INCLUDE\MEMORY
C:\PROGRAM FILES (X86)\MICROSOFT VISUAL STUDIO 10.0\VC\INCLUDE\INTRIN.H
C:\PROGRAM FILES (X86)\MICROSOFT VISUAL STUDIO 10.0\VC\INCLUDE\SETJMP.H
C:\PROGRAM FILES (X86)\MICROSOFT VISUAL STUDIO 10.0\VC\INCLUDE\IMMINTRIN.H
C:\PROGRAM FILES (X86)\MICROSOFT VISUAL STUDIO 10.0\VC\INCLUDE\WMMINTRIN.H
C:\PROGRAM FILES (X86)\MICROSOFT VISUAL STUDIO 10.0\VC\INCLUDE\NMMINTRIN.H
C:\PROGRAM FILES (X86)\MICROSOFT VISUAL STUDIO 10.0\VC\INCLUDE\SMMINTRIN.H
C:\PROGRAM FILES (X86)\MICROSOFT VISUAL STUDIO 10.0\VC\INCLUDE\TMMINTRIN.H
C:\PROGRAM FILES (X86)\MICROSOFT VISUAL STUDIO 10.0\VC\INCLUDE\PMMINTRIN.H
C:\PROGRAM FILES (X86)\MICROSOFT VISUAL STUDIO 10.0\VC\INCLUDE\EMMINTRIN.H
C:\PROGRAM FILES (X86)\MICROSOFT VISUAL STUDIO 10.0\VC\INCLUDE\XMMINTRIN.H
C:\PROGRAM FILES (X86)\MICROSOFT VISUAL STUDIO 10.0\VC\INCLUDE\MMINTRIN.H
C:\PROGRAM FILES (X86)\MICROSOFT VISUAL STUDIO 10.0\VC\INCLUDE\MM3DNOW.H
C:\PROGRAM FILES (X86)\MICROSOFT VISUAL STUDIO 10.0\VC\INCLUDE\XXSHARED
C:\PROGRAM FILES (X86)\MICROSOFT VISUAL STUDIO 10.0\VC\INCLUDE\XFUNCTIONAL
D:\WORK\DOME\NATIVEPLUGINCODE\SOLIDWORKSPLUGINNEW\SOLIDWORKSPLUGINCALLER.H
D:\JAVA\JDK-1.6.0.26\INCLUDE\JNI.H
D:\JAVA\JDK-1.6.0.26\INCLUDE\WIN32\JNI_MD.H
D:\WORK\DOME\NATIVEPLUGINCODE\SOLIDWORKSPLUGINNEW\SOLIDWORKSDELEGATE.H
D:\WORK\DOME\NATIVEPLUGINCODE\SOLIDWORKSPLUGINNEW\SOLIDWORKSMODEL.H
D:\WORK\DOME\NATIVEPLUGINCODE\SOLIDWORKSPLUGINNEW\SOLIDWORKSDATA.H
D:\WORK\DOME\NATIVEPLUGINCODE\SOLIDWORKSPLUGINNEW\SOLIDWORKSINCLUDES.H
C:\WINDDK\7600.16385.1\INC\MFC42\AFXPRIV.H
C:\WINDDK\7600.16385.1\INC\MFC42\AFXADV.H
C:\WINDDK\7600.16385.1\INC\MFC42\AFXWIN.H
C:\WINDDK\7600.16385.1\INC\MFC42\AFX.H
C:\WINDDK\7600.16385.1\INC\MFC42\AFXVER_.H
C:\WINDDK\7600.16385.1\INC\MFC42\AFXV_W32.H
C:\PROGRAM FILES (X86)\MICROSOFT VISUAL STUDIO 10.0\VC\INCLUDE\SAL.H
C:\PROGRAM FILES (X86)\MICROSOFT VISUAL STUDIO 10.0\VC\INCLUDE\CODEANALYSIS\SOURCEANNOTATIONS.H
C:\PROGRAM FILES (X86)\MICROSOFT VISUAL STUDIO 10.0\VC\INCLUDE\VADEFS.H
C:\PROGRAM FILES (X86)\MICROSOFT VISUAL STUDIO 10.0\VC\INCLUDE\STRING.H
C:\PROGRAM FILES (X86)\MICROSOFT VISUAL STUDIO 10.0\VC\INCLUDE\CTYPE.H
C:\PROGRAM FILES (X86)\MICROSOFT VISUAL STUDIO 10.0\VC\INCLUDE\STDARG.H
C:\PROGRAM FILES (X86)\MICROSOFT SDKS\WINDOWS\V7.0A\INCLUDE\WINSOCK2.H
C:\PROGRAM FILES (X86)\MICROSOFT SDKS\WINDOWS\V7.0A\INCLUDE\WINDOWS.H
C:\PROGRAM FILES (X86)\MICROSOFT VISUAL STUDIO 10.0\VC\INCLUDE\EXCPT.H
C:\PROGRAM FILES (X86)\MICROSOFT SDKS\WINDOWS\V7.0A\INCLUDE\WINDEF.H
C:\PROGRAM FILES (X86)\MICROSOFT SDKS\WINDOWS\V7.0A\INCLUDE\WINNT.H
C:\PROGRAM FILES (X86)\MICROSOFT SDKS\WINDOWS\V7.0A\INCLUDE\SPECSTRINGS.H
C:\PROGRAM FILES (X86)\MICROSOFT SDKS\WINDOWS\V7.0A\INCLUDE\SAL_SUPP.H
C:\PROGRAM FILES (X86)\MICROSOFT SDKS\WINDOWS\V7.0A\INCLUDE\SPECSTRINGS_SUPP.H
C:\PROGRAM FILES (X86)\MICROSOFT SDKS\WINDOWS\V7.0A\INCLUDE\SPECSTRINGS_STRICT.H
C:\PROGRAM FILES (X86)\MICROSOFT SDKS\WINDOWS\V7.0A\INCLUDE\SPECSTRINGS_UNDEF.H
C:\PROGRAM FILES (X86)\MICROSOFT SDKS\WINDOWS\V7.0A\INCLUDE\DRIVERSPECS.H
C:\PROGRAM FILES (X86)\MICROSOFT SDKS\WINDOWS\V7.0A\INCLUDE\SDV_DRIVERSPECS.H
C:\PROGRAM FILES (X86)\MICROSOFT SDKS\WINDOWS\V7.0A\INCLUDE\KERNELSPECS.H
C:\PROGRAM FILES (X86)\MICROSOFT SDKS\WINDOWS\V7.0A\INCLUDE\BASETSD.H
C:\PROGRAM FILES (X86)\MICROSOFT SDKS\WINDOWS\V7.0A\INCLUDE\GUIDDEF.H
C:\PROGRAM FILES (X86)\MICROSOFT SDKS\WINDOWS\V7.0A\INCLUDE\PSHPACK4.H
C:\PROGRAM FILES (X86)\MICROSOFT SDKS\WINDOWS\V7.0A\INCLUDE\POPPACK.H
C:\PROGRAM FILES (X86)\MICROSOFT SDKS\WINDOWS\V7.0A\INCLUDE\PSHPACK2.H
C:\PROGRAM FILES (X86)\MICROSOFT SDKS\WINDOWS\V7.0A\INCLUDE\PSHPACK8.H
C:\PROGRAM FILES (X86)\MICROSOFT SDKS\WINDOWS\V7.0A\INCLUDE\KTMTYPES.H
C:\PROGRAM FILES (X86)\MICROSOFT SDKS\WINDOWS\V7.0A\INCLUDE\WINBASE.H
C:\PROGRAM FILES (X86)\MICROSOFT SDKS\WINDOWS\V7.0A\INCLUDE\WINERROR.H
C:\PROGRAM FILES (X86)\MICROSOFT SDKS\WINDOWS\V7.0A\INCLUDE\WINGDI.H
C:\PROGRAM FILES (X86)\MICROSOFT SDKS\WINDOWS\V7.0A\INCLUDE\PSHPACK1.H
C:\PROGRAM FILES (X86)\MICROSOFT SDKS\WINDOWS\V7.0A\INCLUDE\WINUSER.H
C:\PROGRAM FILES (X86)\MICROSOFT SDKS\WINDOWS\V7.0A\INCLUDE\TVOUT.H
C:\PROGRAM FILES (X86)\MICROSOFT SDKS\WINDOWS\V7.0A\INCLUDE\WINNLS.H
C:\PROGRAM FILES (X86)\MICROSOFT SDKS\WINDOWS\V7.0A\INCLUDE\WINCON.H
C:\PROGRAM FILES (X86)\MICROSOFT SDKS\WINDOWS\V7.0A\INCLUDE\WINVER.H
C:\PROGRAM FILES (X86)\MICROSOFT SDKS\WINDOWS\V7.0A\INCLUDE\VERRSRC.H
C:\PROGRAM FILES (X86)\MICROSOFT SDKS\WINDOWS\V7.0A\INCLUDE\WINREG.H
C:\PROGRAM FILES (X86)\MICROSOFT SDKS\WINDOWS\V7.0A\INCLUDE\REASON.H
C:\PROGRAM FILES (X86)\MICROSOFT SDKS\WINDOWS\V7.0A\INCLUDE\WINNETWK.H
C:\PROGRAM FILES (X86)\MICROSOFT SDKS\WINDOWS\V7.0A\INCLUDE\WNNC.H
C:\PROGRAM FILES (X86)\MICROSOFT SDKS\WINDOWS\V7.0A\INCLUDE\STRALIGN.H
C:\PROGRAM FILES (X86)\MICROSOFT SDKS\WINDOWS\V7.0A\INCLUDE\WINSVC.H
C:\PROGRAM FILES (X86)\MICROSOFT SDKS\WINDOWS\V7.0A\INCLUDE\MCX.H
C:\PROGRAM FILES (X86)\MICROSOFT SDKS\WINDOWS\V7.0A\INCLUDE\IMM.H
C:\PROGRAM FILES (X86)\MICROSOFT SDKS\WINDOWS\V7.0A\INCLUDE\IME_CMODES.H
C:\PROGRAM FILES (X86)\MICROSOFT SDKS\WINDOWS\V7.0A\INCLUDE\WS2DEF.H
C:\PROGRAM FILES (X86)\MICROSOFT SDKS\WINDOWS\V7.0A\INCLUDE\INADDR.H
C:\PROGRAM FILES (X86)\MICROSOFT SDKS\WINDOWS\V7.0A\INCLUDE\QOS.H
C:\PROGRAM FILES (X86)\MICROSOFT SDKS\WINDOWS\V7.0A\INCLUDE\ZMOUSE.H
C:\PROGRAM FILES (X86)\MICROSOFT SDKS\WINDOWS\V7.0A\INCLUDE\COMMCTRL.H
C:\PROGRAM FILES (X86)\MICROSOFT SDKS\WINDOWS\V7.0A\INCLUDE\PRSHT.H
C:\PROGRAM FILES (X86)\MICROSOFT VISUAL STUDIO 10.0\VC\INCLUDE\TCHAR.H
C:\PROGRAM FILES (X86)\MICROSOFT VISUAL STUDIO 10.0\VC\INCLUDE\TIME.H
C:\PROGRAM FILES (X86)\MICROSOFT VISUAL STUDIO 10.0\VC\INCLUDE\TIME.INL
C:\WINDDK\7600.16385.1\INC\MFC42\AFXCOLL.H
C:\WINDDK\7600.16385.1\INC\MFC42\AFXSTAT_.H
C:\WINDDK\7600.16385.1\INC\MFC42\AFXTLS_.H
C:\PROGRAM FILES (X86)\MICROSOFT SDKS\WINDOWS\V7.0A\INCLUDE\RPCSAL.H
C:\PROGRAM FILES (X86)\MICROSOFT SDKS\WINDOWS\V7.0A\INCLUDE\SHELLAPI.H
C:\WINDDK\7600.16385.1\INC\MFC42\AFXRES.H
C:\WINDDK\7600.16385.1\INC\MFC42\AFXMSG_.H
C:\WINDDK\7600.16385.1\INC\MFC42\AFXDD_.H
C:\WINDDK\7600.16385.1\INC\MFC42\AFXEXT.H
C:\WINDDK\7600.16385.1\INC\MFC42\AFXDLGS.H
C:\PROGRAM FILES (X86)\MICROSOFT SDKS\WINDOWS\V7.0A\INCLUDE\COMMDLG.H
C:\PROGRAM FILES (X86)\MICROSOFT SDKS\WINDOWS\V7.0A\INCLUDE\RICHEDIT.H
C:\WINDDK\7600.16385.1\INC\MFC42\AFXCONV.H
C:\PROGRAM FILES (X86)\MICROSOFT SDKS\WINDOWS\V7.0A\INCLUDE\OBJBASE.H
C:\PROGRAM FILES (X86)\MICROSOFT SDKS\WINDOWS\V7.0A\INCLUDE\RPC.H
C:\PROGRAM FILES (X86)\MICROSOFT SDKS\WINDOWS\V7.0A\INCLUDE\RPCDCE.H
C:\PROGRAM FILES (X86)\MICROSOFT SDKS\WINDOWS\V7.0A\INCLUDE\RPCDCEP.H
C:\PROGRAM FILES (X86)\MICROSOFT SDKS\WINDOWS\V7.0A\INCLUDE\RPCNSI.H
C:\PROGRAM FILES (X86)\MICROSOFT SDKS\WINDOWS\V7.0A\INCLUDE\RPCNTERR.H
C:\PROGRAM FILES (X86)\MICROSOFT SDKS\WINDOWS\V7.0A\INCLUDE\RPCASYNC.H
C:\PROGRAM FILES (X86)\MICROSOFT SDKS\WINDOWS\V7.0A\INCLUDE\RPCNDR.H
C:\PROGRAM FILES (X86)\MICROSOFT SDKS\WINDOWS\V7.0A\INCLUDE\RPCNSIP.H
C:\PROGRAM FILES (X86)\MICROSOFT SDKS\WINDOWS\V7.0A\INCLUDE\WTYPES.H
C:\PROGRAM FILES (X86)\MICROSOFT SDKS\WINDOWS\V7.0A\INCLUDE\UNKNWN.H
C:\PROGRAM FILES (X86)\MICROSOFT SDKS\WINDOWS\V7.0A\INCLUDE\OLE2.H
C:\PROGRAM FILES (X86)\MICROSOFT SDKS\WINDOWS\V7.0A\INCLUDE\OLEAUTO.H
C:\PROGRAM FILES (X86)\MICROSOFT SDKS\WINDOWS\V7.0A\INCLUDE\OAIDL.H
C:\PROGRAM FILES (X86)\MICROSOFT SDKS\WINDOWS\V7.0A\INCLUDE\OBJIDL.H
C:\PROGRAM FILES (X86)\MICROSOFT SDKS\WINDOWS\V7.0A\INCLUDE\OLEIDL.H
C:\PROGRAM FILES (X86)\MICROSOFT SDKS\WINDOWS\V7.0A\INCLUDE\CGUID.H
C:\PROGRAM FILES (X86)\MICROSOFT SDKS\WINDOWS\V7.0A\INCLUDE\URLMON.H
C:\PROGRAM FILES (X86)\MICROSOFT SDKS\WINDOWS\V7.0A\INCLUDE\SERVPROV.H
C:\PROGRAM FILES (X86)\MICROSOFT SDKS\WINDOWS\V7.0A\INCLUDE\MSXML.H
C:\PROGRAM FILES (X86)\MICROSOFT SDKS\WINDOWS\V7.0A\INCLUDE\PROPIDL.H
C:\WINDDK\7600.16385.1\INC\ATL71\ATLCONV.H
C:\WINDDK\7600.16385.1\INC\ATL71\ATLDEF.H
C:\WINDDK\7600.16385.1\INC\ATL71\ATLRC.H
C:\WINDDK\7600.16385.1\INC\ATL71\ATLALLOC.H
C:\WINDDK\7600.16385.1\INC\MFC42\AFXPRIV2.H
C:\PROGRAM FILES\SOLIDWORKS CORP\SOLIDWORKS\SAMPLES\APPCOMM\SWCONST.H
C:\PROGRAM FILES\SOLIDWORKS CORP\SOLIDWORKS\SAMPLES\APPCOMM\WIN32\SWCONST.H
D:\WORK\DOME\NATIVEPLUGINCODE\SOLIDWORKSPLUGINNEW\SWDISP.H
C:\WINDDK\7600.16385.1\INC\MFC42\AFXDISP.H
C:\PROGRAM FILES (X86)\MICROSOFT SDKS\WINDOWS\V7.0A\INCLUDE\OLECTL.H
C:\PROGRAM FILES (X86)\MICROSOFT SDKS\WINDOWS\V7.0A\INCLUDE\OCIDL.H
C:\PROGRAM FILES (X86)\MICROSOFT SDKS\WINDOWS\V7.0A\INCLUDE\SHLOBJ.H
C:\PROGRAM FILES (X86)\MICROSOFT SDKS\WINDOWS\V7.0A\INCLUDE\SHLGUID.H
C:\PROGRAM FILES (X86)\MICROSOFT SDKS\WINDOWS\V7.0A\INCLUDE\ISGUIDS.H
C:\PROGRAM FILES (X86)\MICROSOFT SDKS\WINDOWS\V7.0A\INCLUDE\EXDISP.H
C:\PROGRAM FILES (X86)\MICROSOFT SDKS\WINDOWS\V7.0A\INCLUDE\DOCOBJ.H
C:\PROGRAM FILES (X86)\MICROSOFT SDKS\WINDOWS\V7.0A\INCLUDE\SHLDISP.H
C:\PROGRAM FILES (X86)\MICROSOFT SDKS\WINDOWS\V7.0A\INCLUDE\KNOWNFOLDERS.H
C:\PROGRAM FILES (X86)\MICROSOFT SDKS\WINDOWS\V7.0A\INCLUDE\SHTYPES.H
C:\PROGRAM FILES (X86)\MICROSOFT SDKS\WINDOWS\V7.0A\INCLUDE\SHOBJIDL.H
C:\PROGRAM FILES (X86)\MICROSOFT SDKS\WINDOWS\V7.0A\INCLUDE\COMCAT.H
C:\PROGRAM FILES (X86)\MICROSOFT SDKS\WINDOWS\V7.0A\INCLUDE\PROPSYS.H
C:\PROGRAM FILES (X86)\MICROSOFT SDKS\WINDOWS\V7.0A\INCLUDE\STRUCTUREDQUERYCONDITION.H
C:\PROGRAM FILES (X86)\MICROSOFT SDKS\WINDOWS\V7.0A\INCLUDE\PROPKEYDEF.H
C:\PROGRAM FILES (X86)\MICROSOFT SDKS\WINDOWS\V7.0A\INCLUDE\OBJECTARRAY.H
C:\PROGRAM FILES (X86)\MICROSOFT SDKS\WINDOWS\V7.0A\INCLUDE\SHERRORS.H
^D:\WORK\DOME\NATIVEPLUGINCODE\SOLIDWORKSPLUGINNEW\SOLIDWORKSMODEL.CPP
D:\WORK\DOME\NATIVEPLUGINCODE\SOLIDWORKSPLUGIN\DEBUG\SOLIDWORKSPLUGIN.PCH
D:\WORK\DOME\NATIVEPLUGINCODE\SOLIDWORKSPLUGINNEW\SOLIDWORKSMODEL.H
D:\WORK\DOME\NATIVEPLUGINCODE\SOLIDWORKSPLUGINNEW\SOLIDWORKSDATA.H
D:\WORK\DOME\NATIVEPLUGINCODE\SOLIDWORKSPLUGINNEW\SOLIDWORKSINCLUDES.H
C:\WINDDK\7600.16385.1\INC\MFC42\AFXPRIV.H
C:\WINDDK\7600.16385.1\INC\MFC42\AFXADV.H
C:\WINDDK\7600.16385.1\INC\MFC42\AFXWIN.H
C:\WINDDK\7600.16385.1\INC\MFC42\AFX.H
C:\WINDDK\7600.16385.1\INC\MFC42\AFXVER_.H
C:\WINDDK\7600.16385.1\INC\MFC42\AFXV_W32.H
C:\PROGRAM FILES (X86)\MICROSOFT SDKS\WINDOWS\V7.0A\INCLUDE\WINSOCK2.H
C:\PROGRAM FILES (X86)\MICROSOFT SDKS\WINDOWS\V7.0A\INCLUDE\WINDOWS.H
C:\PROGRAM FILES (X86)\MICROSOFT VISUAL STUDIO 10.0\VC\INCLUDE\EXCPT.H
C:\PROGRAM FILES (X86)\MICROSOFT VISUAL STUDIO 10.0\VC\INCLUDE\CRTDEFS.H
C:\PROGRAM FILES (X86)\MICROSOFT VISUAL STUDIO 10.0\VC\INCLUDE\SAL.H
C:\PROGRAM FILES (X86)\MICROSOFT VISUAL STUDIO 10.0\VC\INCLUDE\CODEANALYSIS\SOURCEANNOTATIONS.H
C:\PROGRAM FILES (X86)\MICROSOFT VISUAL STUDIO 10.0\VC\INCLUDE\VADEFS.H
C:\PROGRAM FILES (X86)\MICROSOFT VISUAL STUDIO 10.0\VC\INCLUDE\STDARG.H
C:\PROGRAM FILES (X86)\MICROSOFT SDKS\WINDOWS\V7.0A\INCLUDE\WINDEF.H
C:\PROGRAM FILES (X86)\MICROSOFT SDKS\WINDOWS\V7.0A\INCLUDE\WINNT.H
C:\PROGRAM FILES (X86)\MICROSOFT VISUAL STUDIO 10.0\VC\INCLUDE\CTYPE.H
C:\PROGRAM FILES (X86)\MICROSOFT SDKS\WINDOWS\V7.0A\INCLUDE\SPECSTRINGS.H
C:\PROGRAM FILES (X86)\MICROSOFT SDKS\WINDOWS\V7.0A\INCLUDE\SAL_SUPP.H
C:\PROGRAM FILES (X86)\MICROSOFT SDKS\WINDOWS\V7.0A\INCLUDE\SPECSTRINGS_SUPP.H
C:\PROGRAM FILES (X86)\MICROSOFT SDKS\WINDOWS\V7.0A\INCLUDE\SPECSTRINGS_STRICT.H
C:\PROGRAM FILES (X86)\MICROSOFT SDKS\WINDOWS\V7.0A\INCLUDE\SPECSTRINGS_UNDEF.H
C:\PROGRAM FILES (X86)\MICROSOFT SDKS\WINDOWS\V7.0A\INCLUDE\DRIVERSPECS.H
C:\PROGRAM FILES (X86)\MICROSOFT SDKS\WINDOWS\V7.0A\INCLUDE\SDV_DRIVERSPECS.H
C:\PROGRAM FILES (X86)\MICROSOFT SDKS\WINDOWS\V7.0A\INCLUDE\KERNELSPECS.H
C:\PROGRAM FILES (X86)\MICROSOFT SDKS\WINDOWS\V7.0A\INCLUDE\BASETSD.H
C:\PROGRAM FILES (X86)\MICROSOFT SDKS\WINDOWS\V7.0A\INCLUDE\GUIDDEF.H
C:\PROGRAM FILES (X86)\MICROSOFT VISUAL STUDIO 10.0\VC\INCLUDE\STRING.H
C:\PROGRAM FILES (X86)\MICROSOFT SDKS\WINDOWS\V7.0A\INCLUDE\PSHPACK4.H
C:\PROGRAM FILES (X86)\MICROSOFT SDKS\WINDOWS\V7.0A\INCLUDE\POPPACK.H
C:\PROGRAM FILES (X86)\MICROSOFT SDKS\WINDOWS\V7.0A\INCLUDE\PSHPACK2.H
C:\PROGRAM FILES (X86)\MICROSOFT SDKS\WINDOWS\V7.0A\INCLUDE\PSHPACK8.H
C:\PROGRAM FILES (X86)\MICROSOFT SDKS\WINDOWS\V7.0A\INCLUDE\KTMTYPES.H
C:\PROGRAM FILES (X86)\MICROSOFT SDKS\WINDOWS\V7.0A\INCLUDE\WINBASE.H
C:\PROGRAM FILES (X86)\MICROSOFT SDKS\WINDOWS\V7.0A\INCLUDE\WINERROR.H
C:\PROGRAM FILES (X86)\MICROSOFT SDKS\WINDOWS\V7.0A\INCLUDE\WINGDI.H
C:\PROGRAM FILES (X86)\MICROSOFT SDKS\WINDOWS\V7.0A\INCLUDE\PSHPACK1.H
C:\PROGRAM FILES (X86)\MICROSOFT SDKS\WINDOWS\V7.0A\INCLUDE\WINUSER.H
C:\PROGRAM FILES (X86)\MICROSOFT SDKS\WINDOWS\V7.0A\INCLUDE\TVOUT.H
C:\PROGRAM FILES (X86)\MICROSOFT SDKS\WINDOWS\V7.0A\INCLUDE\WINNLS.H
C:\PROGRAM FILES (X86)\MICROSOFT SDKS\WINDOWS\V7.0A\INCLUDE\WINCON.H
C:\PROGRAM FILES (X86)\MICROSOFT SDKS\WINDOWS\V7.0A\INCLUDE\WINVER.H
C:\PROGRAM FILES (X86)\MICROSOFT SDKS\WINDOWS\V7.0A\INCLUDE\VERRSRC.H
C:\PROGRAM FILES (X86)\MICROSOFT SDKS\WINDOWS\V7.0A\INCLUDE\WINREG.H
C:\PROGRAM FILES (X86)\MICROSOFT SDKS\WINDOWS\V7.0A\INCLUDE\REASON.H
C:\PROGRAM FILES (X86)\MICROSOFT SDKS\WINDOWS\V7.0A\INCLUDE\WINNETWK.H
C:\PROGRAM FILES (X86)\MICROSOFT SDKS\WINDOWS\V7.0A\INCLUDE\WNNC.H
C:\PROGRAM FILES (X86)\MICROSOFT SDKS\WINDOWS\V7.0A\INCLUDE\STRALIGN.H
C:\PROGRAM FILES (X86)\MICROSOFT SDKS\WINDOWS\V7.0A\INCLUDE\WINSVC.H
C:\PROGRAM FILES (X86)\MICROSOFT SDKS\WINDOWS\V7.0A\INCLUDE\MCX.H
C:\PROGRAM FILES (X86)\MICROSOFT SDKS\WINDOWS\V7.0A\INCLUDE\IMM.H
C:\PROGRAM FILES (X86)\MICROSOFT SDKS\WINDOWS\V7.0A\INCLUDE\IME_CMODES.H
C:\PROGRAM FILES (X86)\MICROSOFT SDKS\WINDOWS\V7.0A\INCLUDE\WS2DEF.H
C:\PROGRAM FILES (X86)\MICROSOFT SDKS\WINDOWS\V7.0A\INCLUDE\INADDR.H
C:\PROGRAM FILES (X86)\MICROSOFT SDKS\WINDOWS\V7.0A\INCLUDE\QOS.H
C:\PROGRAM FILES (X86)\MICROSOFT SDKS\WINDOWS\V7.0A\INCLUDE\ZMOUSE.H
C:\PROGRAM FILES (X86)\MICROSOFT SDKS\WINDOWS\V7.0A\INCLUDE\COMMCTRL.H
C:\PROGRAM FILES (X86)\MICROSOFT SDKS\WINDOWS\V7.0A\INCLUDE\PRSHT.H
C:\PROGRAM FILES (X86)\MICROSOFT VISUAL STUDIO 10.0\VC\INCLUDE\TCHAR.H
C:\PROGRAM FILES (X86)\MICROSOFT VISUAL STUDIO 10.0\VC\INCLUDE\WCHAR.H
C:\PROGRAM FILES (X86)\MICROSOFT VISUAL STUDIO 10.0\VC\INCLUDE\SWPRINTF.INL
C:\PROGRAM FILES (X86)\MICROSOFT VISUAL STUDIO 10.0\VC\INCLUDE\WTIME.INL
C:\PROGRAM FILES (X86)\MICROSOFT VISUAL STUDIO 10.0\VC\INCLUDE\STDIO.H
C:\PROGRAM FILES (X86)\MICROSOFT VISUAL STUDIO 10.0\VC\INCLUDE\STDLIB.H
C:\PROGRAM FILES (X86)\MICROSOFT VISUAL STUDIO 10.0\VC\INCLUDE\LIMITS.H
C:\PROGRAM FILES (X86)\MICROSOFT VISUAL STUDIO 10.0\VC\INCLUDE\TIME.H
C:\PROGRAM FILES (X86)\MICROSOFT VISUAL STUDIO 10.0\VC\INCLUDE\TIME.INL
C:\PROGRAM FILES (X86)\MICROSOFT VISUAL STUDIO 10.0\VC\INCLUDE\STDDEF.H
C:\PROGRAM FILES (X86)\MICROSOFT VISUAL STUDIO 10.0\VC\INCLUDE\CRTDBG.H
C:\WINDDK\7600.16385.1\INC\MFC42\AFXCOLL.H
C:\WINDDK\7600.16385.1\INC\MFC42\AFXSTAT_.H
C:\WINDDK\7600.16385.1\INC\MFC42\AFXTLS_.H
C:\PROGRAM FILES (X86)\MICROSOFT SDKS\WINDOWS\V7.0A\INCLUDE\RPCSAL.H
C:\PROGRAM FILES (X86)\MICROSOFT SDKS\WINDOWS\V7.0A\INCLUDE\SHELLAPI.H
C:\WINDDK\7600.16385.1\INC\MFC42\AFXRES.H
C:\WINDDK\7600.16385.1\INC\MFC42\AFXMSG_.H
C:\WINDDK\7600.16385.1\INC\MFC42\AFXDD_.H
C:\PROGRAM FILES (X86)\MICROSOFT VISUAL STUDIO 10.0\VC\INCLUDE\MALLOC.H
C:\WINDDK\7600.16385.1\INC\MFC42\AFXEXT.H
C:\WINDDK\7600.16385.1\INC\MFC42\AFXDLGS.H
C:\PROGRAM FILES (X86)\MICROSOFT SDKS\WINDOWS\V7.0A\INCLUDE\COMMDLG.H
C:\PROGRAM FILES (X86)\MICROSOFT SDKS\WINDOWS\V7.0A\INCLUDE\RICHEDIT.H
C:\WINDDK\7600.16385.1\INC\MFC42\AFXCONV.H
C:\PROGRAM FILES (X86)\MICROSOFT SDKS\WINDOWS\V7.0A\INCLUDE\OBJBASE.H
C:\PROGRAM FILES (X86)\MICROSOFT SDKS\WINDOWS\V7.0A\INCLUDE\RPC.H
C:\PROGRAM FILES (X86)\MICROSOFT SDKS\WINDOWS\V7.0A\INCLUDE\RPCDCE.H
C:\PROGRAM FILES (X86)\MICROSOFT SDKS\WINDOWS\V7.0A\INCLUDE\RPCDCEP.H
C:\PROGRAM FILES (X86)\MICROSOFT SDKS\WINDOWS\V7.0A\INCLUDE\RPCNSI.H
C:\PROGRAM FILES (X86)\MICROSOFT SDKS\WINDOWS\V7.0A\INCLUDE\RPCNTERR.H
C:\PROGRAM FILES (X86)\MICROSOFT SDKS\WINDOWS\V7.0A\INCLUDE\RPCASYNC.H
C:\PROGRAM FILES (X86)\MICROSOFT SDKS\WINDOWS\V7.0A\INCLUDE\RPCNDR.H
C:\PROGRAM FILES (X86)\MICROSOFT SDKS\WINDOWS\V7.0A\INCLUDE\RPCNSIP.H
C:\PROGRAM FILES (X86)\MICROSOFT SDKS\WINDOWS\V7.0A\INCLUDE\WTYPES.H
C:\PROGRAM FILES (X86)\MICROSOFT SDKS\WINDOWS\V7.0A\INCLUDE\UNKNWN.H
C:\PROGRAM FILES (X86)\MICROSOFT SDKS\WINDOWS\V7.0A\INCLUDE\OLE2.H
C:\PROGRAM FILES (X86)\MICROSOFT SDKS\WINDOWS\V7.0A\INCLUDE\OLEAUTO.H
C:\PROGRAM FILES (X86)\MICROSOFT SDKS\WINDOWS\V7.0A\INCLUDE\OAIDL.H
C:\PROGRAM FILES (X86)\MICROSOFT SDKS\WINDOWS\V7.0A\INCLUDE\OBJIDL.H
C:\PROGRAM FILES (X86)\MICROSOFT SDKS\WINDOWS\V7.0A\INCLUDE\OLEIDL.H
C:\PROGRAM FILES (X86)\MICROSOFT SDKS\WINDOWS\V7.0A\INCLUDE\CGUID.H
C:\PROGRAM FILES (X86)\MICROSOFT SDKS\WINDOWS\V7.0A\INCLUDE\URLMON.H
C:\PROGRAM FILES (X86)\MICROSOFT SDKS\WINDOWS\V7.0A\INCLUDE\SERVPROV.H
C:\PROGRAM FILES (X86)\MICROSOFT SDKS\WINDOWS\V7.0A\INCLUDE\MSXML.H
C:\PROGRAM FILES (X86)\MICROSOFT SDKS\WINDOWS\V7.0A\INCLUDE\PROPIDL.H
C:\WINDDK\7600.16385.1\INC\ATL71\ATLCONV.H
C:\WINDDK\7600.16385.1\INC\ATL71\ATLDEF.H
C:\WINDDK\7600.16385.1\INC\ATL71\ATLRC.H
C:\PROGRAM FILES (X86)\MICROSOFT VISUAL STUDIO 10.0\VC\INCLUDE\ERRNO.H
C:\WINDDK\7600.16385.1\INC\ATL71\ATLALLOC.H
C:\WINDDK\7600.16385.1\INC\MFC42\AFXPRIV2.H
C:\PROGRAM FILES\SOLIDWORKS CORP\SOLIDWORKS\SAMPLES\APPCOMM\SWCONST.H
C:\PROGRAM FILES\SOLIDWORKS CORP\SOLIDWORKS\SAMPLES\APPCOMM\WIN32\SWCONST.H
D:\WORK\DOME\NATIVEPLUGINCODE\SOLIDWORKSPLUGINNEW\SWDISP.H
C:\WINDDK\7600.16385.1\INC\MFC42\AFXDISP.H
C:\PROGRAM FILES (X86)\MICROSOFT SDKS\WINDOWS\V7.0A\INCLUDE\OLECTL.H
C:\PROGRAM FILES (X86)\MICROSOFT SDKS\WINDOWS\V7.0A\INCLUDE\OCIDL.H
C:\PROGRAM FILES (X86)\MICROSOFT SDKS\WINDOWS\V7.0A\INCLUDE\SHLOBJ.H
C:\PROGRAM FILES (X86)\MICROSOFT SDKS\WINDOWS\V7.0A\INCLUDE\SHLGUID.H
C:\PROGRAM FILES (X86)\MICROSOFT SDKS\WINDOWS\V7.0A\INCLUDE\ISGUIDS.H
C:\PROGRAM FILES (X86)\MICROSOFT SDKS\WINDOWS\V7.0A\INCLUDE\EXDISP.H
C:\PROGRAM FILES (X86)\MICROSOFT SDKS\WINDOWS\V7.0A\INCLUDE\DOCOBJ.H
C:\PROGRAM FILES (X86)\MICROSOFT SDKS\WINDOWS\V7.0A\INCLUDE\SHLDISP.H
C:\PROGRAM FILES (X86)\MICROSOFT SDKS\WINDOWS\V7.0A\INCLUDE\KNOWNFOLDERS.H
C:\PROGRAM FILES (X86)\MICROSOFT SDKS\WINDOWS\V7.0A\INCLUDE\SHTYPES.H
C:\PROGRAM FILES (X86)\MICROSOFT SDKS\WINDOWS\V7.0A\INCLUDE\SHOBJIDL.H
C:\PROGRAM FILES (X86)\MICROSOFT SDKS\WINDOWS\V7.0A\INCLUDE\COMCAT.H
C:\PROGRAM FILES (X86)\MICROSOFT SDKS\WINDOWS\V7.0A\INCLUDE\PROPSYS.H
C:\PROGRAM FILES (X86)\MICROSOFT SDKS\WINDOWS\V7.0A\INCLUDE\STRUCTUREDQUERYCONDITION.H
C:\PROGRAM FILES (X86)\MICROSOFT SDKS\WINDOWS\V7.0A\INCLUDE\PROPKEYDEF.H
C:\PROGRAM FILES (X86)\MICROSOFT SDKS\WINDOWS\V7.0A\INCLUDE\OBJECTARRAY.H
C:\PROGRAM FILES (X86)\MICROSOFT SDKS\WINDOWS\V7.0A\INCLUDE\SHERRORS.H
^D:\WORK\DOME\NATIVEPLUGINCODE\SOLIDWORKSPLUGINNEW\SOLIDWORKSDELEGATE.CPP
D:\WORK\DOME\NATIVEPLUGINCODE\SOLIDWORKSPLUGIN\DEBUG\SOLIDWORKSPLUGIN.PCH
C:\PROGRAM FILES (X86)\MICROSOFT VISUAL STUDIO 10.0\VC\INCLUDE\VECTOR
C:\PROGRAM FILES (X86)\MICROSOFT VISUAL STUDIO 10.0\VC\INCLUDE\MEMORY
C:\PROGRAM FILES (X86)\MICROSOFT VISUAL STUDIO 10.0\VC\INCLUDE\XMEMORY
C:\PROGRAM FILES (X86)\MICROSOFT VISUAL STUDIO 10.0\VC\INCLUDE\CSTDLIB
C:\PROGRAM FILES (X86)\MICROSOFT VISUAL STUDIO 10.0\VC\INCLUDE\YVALS.H
C:\PROGRAM FILES (X86)\MICROSOFT VISUAL STUDIO 10.0\VC\INCLUDE\CRTDEFS.H
C:\PROGRAM FILES (X86)\MICROSOFT VISUAL STUDIO 10.0\VC\INCLUDE\USE_ANSI.H
C:\PROGRAM FILES (X86)\MICROSOFT VISUAL STUDIO 10.0\VC\INCLUDE\STDLIB.H
C:\PROGRAM FILES (X86)\MICROSOFT VISUAL STUDIO 10.0\VC\INCLUDE\LIMITS.H
C:\PROGRAM FILES (X86)\MICROSOFT VISUAL STUDIO 10.0\VC\INCLUDE\NEW
C:\PROGRAM FILES (X86)\MICROSOFT VISUAL STUDIO 10.0\VC\INCLUDE\EXCEPTION
C:\PROGRAM FILES (X86)\MICROSOFT VISUAL STUDIO 10.0\VC\INCLUDE\XSTDDEF
C:\PROGRAM FILES (X86)\MICROSOFT VISUAL STUDIO 10.0\VC\INCLUDE\CSTDDEF
C:\PROGRAM FILES (X86)\MICROSOFT VISUAL STUDIO 10.0\VC\INCLUDE\STDDEF.H
C:\PROGRAM FILES (X86)\MICROSOFT VISUAL STUDIO 10.0\VC\INCLUDE\EH.H
C:\PROGRAM FILES (X86)\MICROSOFT VISUAL STUDIO 10.0\VC\INCLUDE\MALLOC.H
C:\PROGRAM FILES (X86)\MICROSOFT VISUAL STUDIO 10.0\VC\INCLUDE\XUTILITY
C:\PROGRAM FILES (X86)\MICROSOFT VISUAL STUDIO 10.0\VC\INCLUDE\CLIMITS
C:\PROGRAM FILES (X86)\MICROSOFT VISUAL STUDIO 10.0\VC\INCLUDE\UTILITY
C:\PROGRAM FILES (X86)\MICROSOFT VISUAL STUDIO 10.0\VC\INCLUDE\IOSFWD
C:\PROGRAM FILES (X86)\MICROSOFT VISUAL STUDIO 10.0\VC\INCLUDE\CSTDIO
C:\PROGRAM FILES (X86)\MICROSOFT VISUAL STUDIO 10.0\VC\INCLUDE\STDIO.H
C:\PROGRAM FILES (X86)\MICROSOFT VISUAL STUDIO 10.0\VC\INCLUDE\SWPRINTF.INL
C:\PROGRAM FILES (X86)\MICROSOFT VISUAL STUDIO 10.0\VC\INCLUDE\CSTRING
C:\PROGRAM FILES (X86)\MICROSOFT VISUAL STUDIO 10.0\VC\INCLUDE\CWCHAR
C:\PROGRAM FILES (X86)\MICROSOFT VISUAL STUDIO 10.0\VC\INCLUDE\WCHAR.H
C:\PROGRAM FILES (X86)\MICROSOFT VISUAL STUDIO 10.0\VC\INCLUDE\WTIME.INL
C:\PROGRAM FILES (X86)\MICROSOFT VISUAL STUDIO 10.0\VC\INCLUDE\CRTDBG.H
C:\PROGRAM FILES (X86)\MICROSOFT VISUAL STUDIO 10.0\VC\INCLUDE\TYPE_TRAITS
C:\PROGRAM FILES (X86)\MICROSOFT VISUAL STUDIO 10.0\VC\INCLUDE\LIMITS
C:\PROGRAM FILES (X86)\MICROSOFT VISUAL STUDIO 10.0\VC\INCLUDE\YMATH.H
C:\PROGRAM FILES (X86)\MICROSOFT VISUAL STUDIO 10.0\VC\INCLUDE\CFLOAT
C:\PROGRAM FILES (X86)\MICROSOFT VISUAL STUDIO 10.0\VC\INCLUDE\FLOAT.H
C:\PROGRAM FILES (X86)\MICROSOFT VISUAL STUDIO 10.0\VC\INCLUDE\CRTWRN.H
C:\PROGRAM FILES (X86)\MICROSOFT VISUAL STUDIO 10.0\VC\INCLUDE\CMATH
C:\PROGRAM FILES (X86)\MICROSOFT VISUAL STUDIO 10.0\VC\INCLUDE\MATH.H
C:\PROGRAM FILES (X86)\MICROSOFT VISUAL STUDIO 10.0\VC\INCLUDE\XTR1COMMON
C:\PROGRAM FILES (X86)\MICROSOFT VISUAL STUDIO 10.0\VC\INCLUDE\XFWRAP
C:\PROGRAM FILES (X86)\MICROSOFT VISUAL STUDIO 10.0\VC\INCLUDE\XFWRAP1
C:\PROGRAM FILES (X86)\MICROSOFT VISUAL STUDIO 10.0\VC\INCLUDE\XXTYPE_TRAITS
C:\PROGRAM FILES (X86)\MICROSOFT VISUAL STUDIO 10.0\VC\INCLUDE\TYPEINFO
C:\PROGRAM FILES (X86)\MICROSOFT VISUAL STUDIO 10.0\VC\INCLUDE\INTRIN.H
C:\PROGRAM FILES (X86)\MICROSOFT VISUAL STUDIO 10.0\VC\INCLUDE\SETJMP.H
C:\PROGRAM FILES (X86)\MICROSOFT VISUAL STUDIO 10.0\VC\INCLUDE\IMMINTRIN.H
C:\PROGRAM FILES (X86)\MICROSOFT VISUAL STUDIO 10.0\VC\INCLUDE\WMMINTRIN.H
C:\PROGRAM FILES (X86)\MICROSOFT VISUAL STUDIO 10.0\VC\INCLUDE\NMMINTRIN.H
C:\PROGRAM FILES (X86)\MICROSOFT VISUAL STUDIO 10.0\VC\INCLUDE\SMMINTRIN.H
C:\PROGRAM FILES (X86)\MICROSOFT VISUAL STUDIO 10.0\VC\INCLUDE\TMMINTRIN.H
C:\PROGRAM FILES (X86)\MICROSOFT VISUAL STUDIO 10.0\VC\INCLUDE\PMMINTRIN.H
C:\PROGRAM FILES (X86)\MICROSOFT VISUAL STUDIO 10.0\VC\INCLUDE\EMMINTRIN.H
C:\PROGRAM FILES (X86)\MICROSOFT VISUAL STUDIO 10.0\VC\INCLUDE\XMMINTRIN.H
C:\PROGRAM FILES (X86)\MICROSOFT VISUAL STUDIO 10.0\VC\INCLUDE\MMINTRIN.H
C:\PROGRAM FILES (X86)\MICROSOFT VISUAL STUDIO 10.0\VC\INCLUDE\MM3DNOW.H
C:\PROGRAM FILES (X86)\MICROSOFT VISUAL STUDIO 10.0\VC\INCLUDE\XXSHARED
C:\PROGRAM FILES (X86)\MICROSOFT VISUAL STUDIO 10.0\VC\INCLUDE\STDEXCEPT
C:\PROGRAM FILES (X86)\MICROSOFT VISUAL STUDIO 10.0\VC\INCLUDE\XSTRING
C:\PROGRAM FILES (X86)\MICROSOFT VISUAL STUDIO 10.0\VC\INCLUDE\XFUNCTIONAL
C:\PROGRAM FILES (X86)\MICROSOFT VISUAL STUDIO 10.0\VC\INCLUDE\STRING
C:\PROGRAM FILES (X86)\MICROSOFT VISUAL STUDIO 10.0\VC\INCLUDE\ISTREAM
C:\PROGRAM FILES (X86)\MICROSOFT VISUAL STUDIO 10.0\VC\INCLUDE\OSTREAM
C:\PROGRAM FILES (X86)\MICROSOFT VISUAL STUDIO 10.0\VC\INCLUDE\IOS
C:\PROGRAM FILES (X86)\MICROSOFT VISUAL STUDIO 10.0\VC\INCLUDE\XLOCNUM
C:\PROGRAM FILES (X86)\MICROSOFT VISUAL STUDIO 10.0\VC\INCLUDE\STREAMBUF
C:\PROGRAM FILES (X86)\MICROSOFT VISUAL STUDIO 10.0\VC\INCLUDE\XIOSBASE
C:\PROGRAM FILES (X86)\MICROSOFT VISUAL STUDIO 10.0\VC\INCLUDE\XLOCALE
C:\PROGRAM FILES (X86)\MICROSOFT VISUAL STUDIO 10.0\VC\INCLUDE\XLOCINFO
C:\PROGRAM FILES (X86)\MICROSOFT VISUAL STUDIO 10.0\VC\INCLUDE\XLOCINFO.H
C:\PROGRAM FILES (X86)\MICROSOFT VISUAL STUDIO 10.0\VC\INCLUDE\LOCALE.H
C:\PROGRAM FILES (X86)\MICROSOFT VISUAL STUDIO 10.0\VC\INCLUDE\XDEBUG
C:\PROGRAM FILES (X86)\MICROSOFT VISUAL STUDIO 10.0\VC\INCLUDE\SYSTEM_ERROR
C:\PROGRAM FILES (X86)\MICROSOFT VISUAL STUDIO 10.0\VC\INCLUDE\CERRNO
C:\PROGRAM FILES (X86)\MICROSOFT VISUAL STUDIO 10.0\VC\INCLUDE\ERRNO.H
C:\PROGRAM FILES (X86)\MICROSOFT VISUAL STUDIO 10.0\VC\INCLUDE\SHARE.H
C:\PROGRAM FILES (X86)\MICROSOFT VISUAL STUDIO 10.0\VC\INCLUDE\IOSTREAM
D:\JAVA\JDK-1.6.0.26\INCLUDE\JNI.H
D:\JAVA\JDK-1.6.0.26\INCLUDE\WIN32\JNI_MD.H
D:\WORK\DOME\NATIVEPLUGINCODE\SOLIDWORKSPLUGINNEW\JNIHELPER.H
D:\WORK\DOME\NATIVEPLUGINCODE\SOLIDWORKSPLUGINNEW\SOLIDWORKSINCLUDES.H
C:\WINDDK\7600.16385.1\INC\MFC42\AFXPRIV.H
C:\WINDDK\7600.16385.1\INC\MFC42\AFXADV.H
C:\WINDDK\7600.16385.1\INC\MFC42\AFXWIN.H
C:\WINDDK\7600.16385.1\INC\MFC42\AFX.H
C:\WINDDK\7600.16385.1\INC\MFC42\AFXVER_.H
C:\WINDDK\7600.16385.1\INC\MFC42\AFXV_W32.H
C:\PROGRAM FILES (X86)\MICROSOFT VISUAL STUDIO 10.0\VC\INCLUDE\SAL.H
C:\PROGRAM FILES (X86)\MICROSOFT VISUAL STUDIO 10.0\VC\INCLUDE\CODEANALYSIS\SOURCEANNOTATIONS.H
C:\PROGRAM FILES (X86)\MICROSOFT VISUAL STUDIO 10.0\VC\INCLUDE\VADEFS.H
C:\PROGRAM FILES (X86)\MICROSOFT VISUAL STUDIO 10.0\VC\INCLUDE\STRING.H
C:\PROGRAM FILES (X86)\MICROSOFT VISUAL STUDIO 10.0\VC\INCLUDE\CTYPE.H
C:\PROGRAM FILES (X86)\MICROSOFT VISUAL STUDIO 10.0\VC\INCLUDE\STDARG.H
C:\PROGRAM FILES (X86)\MICROSOFT SDKS\WINDOWS\V7.0A\INCLUDE\WINSOCK2.H
C:\PROGRAM FILES (X86)\MICROSOFT SDKS\WINDOWS\V7.0A\INCLUDE\WINDOWS.H
C:\PROGRAM FILES (X86)\MICROSOFT VISUAL STUDIO 10.0\VC\INCLUDE\EXCPT.H
C:\PROGRAM FILES (X86)\MICROSOFT SDKS\WINDOWS\V7.0A\INCLUDE\WINDEF.H
C:\PROGRAM FILES (X86)\MICROSOFT SDKS\WINDOWS\V7.0A\INCLUDE\WINNT.H
C:\PROGRAM FILES (X86)\MICROSOFT SDKS\WINDOWS\V7.0A\INCLUDE\SPECSTRINGS.H
C:\PROGRAM FILES (X86)\MICROSOFT SDKS\WINDOWS\V7.0A\INCLUDE\SAL_SUPP.H
C:\PROGRAM FILES (X86)\MICROSOFT SDKS\WINDOWS\V7.0A\INCLUDE\SPECSTRINGS_SUPP.H
C:\PROGRAM FILES (X86)\MICROSOFT SDKS\WINDOWS\V7.0A\INCLUDE\SPECSTRINGS_STRICT.H
C:\PROGRAM FILES (X86)\MICROSOFT SDKS\WINDOWS\V7.0A\INCLUDE\SPECSTRINGS_UNDEF.H
C:\PROGRAM FILES (X86)\MICROSOFT SDKS\WINDOWS\V7.0A\INCLUDE\DRIVERSPECS.H
C:\PROGRAM FILES (X86)\MICROSOFT SDKS\WINDOWS\V7.0A\INCLUDE\SDV_DRIVERSPECS.H
C:\PROGRAM FILES (X86)\MICROSOFT SDKS\WINDOWS\V7.0A\INCLUDE\KERNELSPECS.H
C:\PROGRAM FILES (X86)\MICROSOFT SDKS\WINDOWS\V7.0A\INCLUDE\BASETSD.H
C:\PROGRAM FILES (X86)\MICROSOFT SDKS\WINDOWS\V7.0A\INCLUDE\GUIDDEF.H
C:\PROGRAM FILES (X86)\MICROSOFT SDKS\WINDOWS\V7.0A\INCLUDE\PSHPACK4.H
C:\PROGRAM FILES (X86)\MICROSOFT SDKS\WINDOWS\V7.0A\INCLUDE\POPPACK.H
C:\PROGRAM FILES (X86)\MICROSOFT SDKS\WINDOWS\V7.0A\INCLUDE\PSHPACK2.H
C:\PROGRAM FILES (X86)\MICROSOFT SDKS\WINDOWS\V7.0A\INCLUDE\PSHPACK8.H
C:\PROGRAM FILES (X86)\MICROSOFT SDKS\WINDOWS\V7.0A\INCLUDE\KTMTYPES.H
C:\PROGRAM FILES (X86)\MICROSOFT SDKS\WINDOWS\V7.0A\INCLUDE\WINBASE.H
C:\PROGRAM FILES (X86)\MICROSOFT SDKS\WINDOWS\V7.0A\INCLUDE\WINERROR.H
C:\PROGRAM FILES (X86)\MICROSOFT SDKS\WINDOWS\V7.0A\INCLUDE\WINGDI.H
C:\PROGRAM FILES (X86)\MICROSOFT SDKS\WINDOWS\V7.0A\INCLUDE\PSHPACK1.H
C:\PROGRAM FILES (X86)\MICROSOFT SDKS\WINDOWS\V7.0A\INCLUDE\WINUSER.H
C:\PROGRAM FILES (X86)\MICROSOFT SDKS\WINDOWS\V7.0A\INCLUDE\TVOUT.H
C:\PROGRAM FILES (X86)\MICROSOFT SDKS\WINDOWS\V7.0A\INCLUDE\WINNLS.H
C:\PROGRAM FILES (X86)\MICROSOFT SDKS\WINDOWS\V7.0A\INCLUDE\WINCON.H
C:\PROGRAM FILES (X86)\MICROSOFT SDKS\WINDOWS\V7.0A\INCLUDE\WINVER.H
C:\PROGRAM FILES (X86)\MICROSOFT SDKS\WINDOWS\V7.0A\INCLUDE\VERRSRC.H
C:\PROGRAM FILES (X86)\MICROSOFT SDKS\WINDOWS\V7.0A\INCLUDE\WINREG.H
C:\PROGRAM FILES (X86)\MICROSOFT SDKS\WINDOWS\V7.0A\INCLUDE\REASON.H
C:\PROGRAM FILES (X86)\MICROSOFT SDKS\WINDOWS\V7.0A\INCLUDE\WINNETWK.H
C:\PROGRAM FILES (X86)\MICROSOFT SDKS\WINDOWS\V7.0A\INCLUDE\WNNC.H
C:\PROGRAM FILES (X86)\MICROSOFT SDKS\WINDOWS\V7.0A\INCLUDE\STRALIGN.H
C:\PROGRAM FILES (X86)\MICROSOFT SDKS\WINDOWS\V7.0A\INCLUDE\WINSVC.H
C:\PROGRAM FILES (X86)\MICROSOFT SDKS\WINDOWS\V7.0A\INCLUDE\MCX.H
C:\PROGRAM FILES (X86)\MICROSOFT SDKS\WINDOWS\V7.0A\INCLUDE\IMM.H
C:\PROGRAM FILES (X86)\MICROSOFT SDKS\WINDOWS\V7.0A\INCLUDE\IME_CMODES.H
C:\PROGRAM FILES (X86)\MICROSOFT SDKS\WINDOWS\V7.0A\INCLUDE\WS2DEF.H
C:\PROGRAM FILES (X86)\MICROSOFT SDKS\WINDOWS\V7.0A\INCLUDE\INADDR.H
C:\PROGRAM FILES (X86)\MICROSOFT SDKS\WINDOWS\V7.0A\INCLUDE\QOS.H
C:\PROGRAM FILES (X86)\MICROSOFT SDKS\WINDOWS\V7.0A\INCLUDE\ZMOUSE.H
C:\PROGRAM FILES (X86)\MICROSOFT SDKS\WINDOWS\V7.0A\INCLUDE\COMMCTRL.H
C:\PROGRAM FILES (X86)\MICROSOFT SDKS\WINDOWS\V7.0A\INCLUDE\PRSHT.H
C:\PROGRAM FILES (X86)\MICROSOFT VISUAL STUDIO 10.0\VC\INCLUDE\TCHAR.H
C:\PROGRAM FILES (X86)\MICROSOFT VISUAL STUDIO 10.0\VC\INCLUDE\TIME.H
C:\PROGRAM FILES (X86)\MICROSOFT VISUAL STUDIO 10.0\VC\INCLUDE\TIME.INL
C:\WINDDK\7600.16385.1\INC\MFC42\AFXCOLL.H
C:\WINDDK\7600.16385.1\INC\MFC42\AFXSTAT_.H
C:\WINDDK\7600.16385.1\INC\MFC42\AFXTLS_.H
C:\PROGRAM FILES (X86)\MICROSOFT SDKS\WINDOWS\V7.0A\INCLUDE\RPCSAL.H
C:\PROGRAM FILES (X86)\MICROSOFT SDKS\WINDOWS\V7.0A\INCLUDE\SHELLAPI.H
C:\WINDDK\7600.16385.1\INC\MFC42\AFXRES.H
C:\WINDDK\7600.16385.1\INC\MFC42\AFXMSG_.H
C:\WINDDK\7600.16385.1\INC\MFC42\AFXDD_.H
C:\WINDDK\7600.16385.1\INC\MFC42\AFXEXT.H
C:\WINDDK\7600.16385.1\INC\MFC42\AFXDLGS.H
C:\PROGRAM FILES (X86)\MICROSOFT SDKS\WINDOWS\V7.0A\INCLUDE\COMMDLG.H
C:\PROGRAM FILES (X86)\MICROSOFT SDKS\WINDOWS\V7.0A\INCLUDE\RICHEDIT.H
C:\WINDDK\7600.16385.1\INC\MFC42\AFXCONV.H
C:\PROGRAM FILES (X86)\MICROSOFT SDKS\WINDOWS\V7.0A\INCLUDE\OBJBASE.H
C:\PROGRAM FILES (X86)\MICROSOFT SDKS\WINDOWS\V7.0A\INCLUDE\RPC.H
C:\PROGRAM FILES (X86)\MICROSOFT SDKS\WINDOWS\V7.0A\INCLUDE\RPCDCE.H
C:\PROGRAM FILES (X86)\MICROSOFT SDKS\WINDOWS\V7.0A\INCLUDE\RPCDCEP.H
C:\PROGRAM FILES (X86)\MICROSOFT SDKS\WINDOWS\V7.0A\INCLUDE\RPCNSI.H
C:\PROGRAM FILES (X86)\MICROSOFT SDKS\WINDOWS\V7.0A\INCLUDE\RPCNTERR.H
C:\PROGRAM FILES (X86)\MICROSOFT SDKS\WINDOWS\V7.0A\INCLUDE\RPCASYNC.H
C:\PROGRAM FILES (X86)\MICROSOFT SDKS\WINDOWS\V7.0A\INCLUDE\RPCNDR.H
C:\PROGRAM FILES (X86)\MICROSOFT SDKS\WINDOWS\V7.0A\INCLUDE\RPCNSIP.H
C:\PROGRAM FILES (X86)\MICROSOFT SDKS\WINDOWS\V7.0A\INCLUDE\WTYPES.H
C:\PROGRAM FILES (X86)\MICROSOFT SDKS\WINDOWS\V7.0A\INCLUDE\UNKNWN.H
C:\PROGRAM FILES (X86)\MICROSOFT SDKS\WINDOWS\V7.0A\INCLUDE\OLE2.H
C:\PROGRAM FILES (X86)\MICROSOFT SDKS\WINDOWS\V7.0A\INCLUDE\OLEAUTO.H
C:\PROGRAM FILES (X86)\MICROSOFT SDKS\WINDOWS\V7.0A\INCLUDE\OAIDL.H
C:\PROGRAM FILES (X86)\MICROSOFT SDKS\WINDOWS\V7.0A\INCLUDE\OBJIDL.H
C:\PROGRAM FILES (X86)\MICROSOFT SDKS\WINDOWS\V7.0A\INCLUDE\OLEIDL.H
C:\PROGRAM FILES (X86)\MICROSOFT SDKS\WINDOWS\V7.0A\INCLUDE\CGUID.H
C:\PROGRAM FILES (X86)\MICROSOFT SDKS\WINDOWS\V7.0A\INCLUDE\URLMON.H
C:\PROGRAM FILES (X86)\MICROSOFT SDKS\WINDOWS\V7.0A\INCLUDE\SERVPROV.H
C:\PROGRAM FILES (X86)\MICROSOFT SDKS\WINDOWS\V7.0A\INCLUDE\MSXML.H
C:\PROGRAM FILES (X86)\MICROSOFT SDKS\WINDOWS\V7.0A\INCLUDE\PROPIDL.H
C:\WINDDK\7600.16385.1\INC\ATL71\ATLCONV.H
C:\WINDDK\7600.16385.1\INC\ATL71\ATLDEF.H
C:\WINDDK\7600.16385.1\INC\ATL71\ATLRC.H
C:\WINDDK\7600.16385.1\INC\ATL71\ATLALLOC.H
C:\WINDDK\7600.16385.1\INC\MFC42\AFXPRIV2.H
C:\PROGRAM FILES\SOLIDWORKS CORP\SOLIDWORKS\SAMPLES\APPCOMM\SWCONST.H
C:\PROGRAM FILES\SOLIDWORKS CORP\SOLIDWORKS\SAMPLES\APPCOMM\WIN32\SWCONST.H
D:\WORK\DOME\NATIVEPLUGINCODE\SOLIDWORKSPLUGINNEW\SWDISP.H
C:\WINDDK\7600.16385.1\INC\MFC42\AFXDISP.H
C:\PROGRAM FILES (X86)\MICROSOFT SDKS\WINDOWS\V7.0A\INCLUDE\OLECTL.H
C:\PROGRAM FILES (X86)\MICROSOFT SDKS\WINDOWS\V7.0A\INCLUDE\OCIDL.H
C:\PROGRAM FILES (X86)\MICROSOFT SDKS\WINDOWS\V7.0A\INCLUDE\SHLOBJ.H
C:\PROGRAM FILES (X86)\MICROSOFT SDKS\WINDOWS\V7.0A\INCLUDE\SHLGUID.H
C:\PROGRAM FILES (X86)\MICROSOFT SDKS\WINDOWS\V7.0A\INCLUDE\ISGUIDS.H
C:\PROGRAM FILES (X86)\MICROSOFT SDKS\WINDOWS\V7.0A\INCLUDE\EXDISP.H
C:\PROGRAM FILES (X86)\MICROSOFT SDKS\WINDOWS\V7.0A\INCLUDE\DOCOBJ.H
C:\PROGRAM FILES (X86)\MICROSOFT SDKS\WINDOWS\V7.0A\INCLUDE\SHLDISP.H
C:\PROGRAM FILES (X86)\MICROSOFT SDKS\WINDOWS\V7.0A\INCLUDE\KNOWNFOLDERS.H
C:\PROGRAM FILES (X86)\MICROSOFT SDKS\WINDOWS\V7.0A\INCLUDE\SHTYPES.H
C:\PROGRAM FILES (X86)\MICROSOFT SDKS\WINDOWS\V7.0A\INCLUDE\SHOBJIDL.H
C:\PROGRAM FILES (X86)\MICROSOFT SDKS\WINDOWS\V7.0A\INCLUDE\COMCAT.H
C:\PROGRAM FILES (X86)\MICROSOFT SDKS\WINDOWS\V7.0A\INCLUDE\PROPSYS.H
C:\PROGRAM FILES (X86)\MICROSOFT SDKS\WINDOWS\V7.0A\INCLUDE\STRUCTUREDQUERYCONDITION.H
C:\PROGRAM FILES (X86)\MICROSOFT SDKS\WINDOWS\V7.0A\INCLUDE\PROPKEYDEF.H
C:\PROGRAM FILES (X86)\MICROSOFT SDKS\WINDOWS\V7.0A\INCLUDE\OBJECTARRAY.H
C:\PROGRAM FILES (X86)\MICROSOFT SDKS\WINDOWS\V7.0A\INCLUDE\SHERRORS.H
^D:\WORK\DOME\NATIVEPLUGINCODE\SOLIDWORKSPLUGINNEW\SOLIDWORKSDATA.CPP
D:\WORK\DOME\NATIVEPLUGINCODE\SOLIDWORKSPLUGIN\DEBUG\SOLIDWORKSPLUGIN.PCH
D:\WORK\DOME\NATIVEPLUGINCODE\SOLIDWORKSPLUGINNEW\SOLIDWORKSDATA.H
D:\WORK\DOME\NATIVEPLUGINCODE\SOLIDWORKSPLUGINNEW\SOLIDWORKSINCLUDES.H
C:\WINDDK\7600.16385.1\INC\MFC42\AFXPRIV.H
C:\WINDDK\7600.16385.1\INC\MFC42\AFXADV.H
C:\WINDDK\7600.16385.1\INC\MFC42\AFXWIN.H
C:\WINDDK\7600.16385.1\INC\MFC42\AFX.H
C:\WINDDK\7600.16385.1\INC\MFC42\AFXVER_.H
C:\WINDDK\7600.16385.1\INC\MFC42\AFXV_W32.H
C:\PROGRAM FILES (X86)\MICROSOFT SDKS\WINDOWS\V7.0A\INCLUDE\WINSOCK2.H
C:\PROGRAM FILES (X86)\MICROSOFT SDKS\WINDOWS\V7.0A\INCLUDE\WINDOWS.H
C:\PROGRAM FILES (X86)\MICROSOFT VISUAL STUDIO 10.0\VC\INCLUDE\EXCPT.H
C:\PROGRAM FILES (X86)\MICROSOFT VISUAL STUDIO 10.0\VC\INCLUDE\CRTDEFS.H
C:\PROGRAM FILES (X86)\MICROSOFT VISUAL STUDIO 10.0\VC\INCLUDE\SAL.H
C:\PROGRAM FILES (X86)\MICROSOFT VISUAL STUDIO 10.0\VC\INCLUDE\CODEANALYSIS\SOURCEANNOTATIONS.H
C:\PROGRAM FILES (X86)\MICROSOFT VISUAL STUDIO 10.0\VC\INCLUDE\VADEFS.H
C:\PROGRAM FILES (X86)\MICROSOFT VISUAL STUDIO 10.0\VC\INCLUDE\STDARG.H
C:\PROGRAM FILES (X86)\MICROSOFT SDKS\WINDOWS\V7.0A\INCLUDE\WINDEF.H
C:\PROGRAM FILES (X86)\MICROSOFT SDKS\WINDOWS\V7.0A\INCLUDE\WINNT.H
C:\PROGRAM FILES (X86)\MICROSOFT VISUAL STUDIO 10.0\VC\INCLUDE\CTYPE.H
C:\PROGRAM FILES (X86)\MICROSOFT SDKS\WINDOWS\V7.0A\INCLUDE\SPECSTRINGS.H
C:\PROGRAM FILES (X86)\MICROSOFT SDKS\WINDOWS\V7.0A\INCLUDE\SAL_SUPP.H
C:\PROGRAM FILES (X86)\MICROSOFT SDKS\WINDOWS\V7.0A\INCLUDE\SPECSTRINGS_SUPP.H
C:\PROGRAM FILES (X86)\MICROSOFT SDKS\WINDOWS\V7.0A\INCLUDE\SPECSTRINGS_STRICT.H
C:\PROGRAM FILES (X86)\MICROSOFT SDKS\WINDOWS\V7.0A\INCLUDE\SPECSTRINGS_UNDEF.H
C:\PROGRAM FILES (X86)\MICROSOFT SDKS\WINDOWS\V7.0A\INCLUDE\DRIVERSPECS.H
C:\PROGRAM FILES (X86)\MICROSOFT SDKS\WINDOWS\V7.0A\INCLUDE\SDV_DRIVERSPECS.H
C:\PROGRAM FILES (X86)\MICROSOFT SDKS\WINDOWS\V7.0A\INCLUDE\KERNELSPECS.H
C:\PROGRAM FILES (X86)\MICROSOFT SDKS\WINDOWS\V7.0A\INCLUDE\BASETSD.H
C:\PROGRAM FILES (X86)\MICROSOFT SDKS\WINDOWS\V7.0A\INCLUDE\GUIDDEF.H
C:\PROGRAM FILES (X86)\MICROSOFT VISUAL STUDIO 10.0\VC\INCLUDE\STRING.H
C:\PROGRAM FILES (X86)\MICROSOFT SDKS\WINDOWS\V7.0A\INCLUDE\PSHPACK4.H
C:\PROGRAM FILES (X86)\MICROSOFT SDKS\WINDOWS\V7.0A\INCLUDE\POPPACK.H
C:\PROGRAM FILES (X86)\MICROSOFT SDKS\WINDOWS\V7.0A\INCLUDE\PSHPACK2.H
C:\PROGRAM FILES (X86)\MICROSOFT SDKS\WINDOWS\V7.0A\INCLUDE\PSHPACK8.H
C:\PROGRAM FILES (X86)\MICROSOFT SDKS\WINDOWS\V7.0A\INCLUDE\KTMTYPES.H
C:\PROGRAM FILES (X86)\MICROSOFT SDKS\WINDOWS\V7.0A\INCLUDE\WINBASE.H
C:\PROGRAM FILES (X86)\MICROSOFT SDKS\WINDOWS\V7.0A\INCLUDE\WINERROR.H
C:\PROGRAM FILES (X86)\MICROSOFT SDKS\WINDOWS\V7.0A\INCLUDE\WINGDI.H
C:\PROGRAM FILES (X86)\MICROSOFT SDKS\WINDOWS\V7.0A\INCLUDE\PSHPACK1.H
C:\PROGRAM FILES (X86)\MICROSOFT SDKS\WINDOWS\V7.0A\INCLUDE\WINUSER.H
C:\PROGRAM FILES (X86)\MICROSOFT SDKS\WINDOWS\V7.0A\INCLUDE\TVOUT.H
C:\PROGRAM FILES (X86)\MICROSOFT SDKS\WINDOWS\V7.0A\INCLUDE\WINNLS.H
C:\PROGRAM FILES (X86)\MICROSOFT SDKS\WINDOWS\V7.0A\INCLUDE\WINCON.H
C:\PROGRAM FILES (X86)\MICROSOFT SDKS\WINDOWS\V7.0A\INCLUDE\WINVER.H
C:\PROGRAM FILES (X86)\MICROSOFT SDKS\WINDOWS\V7.0A\INCLUDE\VERRSRC.H
C:\PROGRAM FILES (X86)\MICROSOFT SDKS\WINDOWS\V7.0A\INCLUDE\WINREG.H
C:\PROGRAM FILES (X86)\MICROSOFT SDKS\WINDOWS\V7.0A\INCLUDE\REASON.H
C:\PROGRAM FILES (X86)\MICROSOFT SDKS\WINDOWS\V7.0A\INCLUDE\WINNETWK.H
C:\PROGRAM FILES (X86)\MICROSOFT SDKS\WINDOWS\V7.0A\INCLUDE\WNNC.H
C:\PROGRAM FILES (X86)\MICROSOFT SDKS\WINDOWS\V7.0A\INCLUDE\STRALIGN.H
C:\PROGRAM FILES (X86)\MICROSOFT SDKS\WINDOWS\V7.0A\INCLUDE\WINSVC.H
C:\PROGRAM FILES (X86)\MICROSOFT SDKS\WINDOWS\V7.0A\INCLUDE\MCX.H
C:\PROGRAM FILES (X86)\MICROSOFT SDKS\WINDOWS\V7.0A\INCLUDE\IMM.H
C:\PROGRAM FILES (X86)\MICROSOFT SDKS\WINDOWS\V7.0A\INCLUDE\IME_CMODES.H
C:\PROGRAM FILES (X86)\MICROSOFT SDKS\WINDOWS\V7.0A\INCLUDE\WS2DEF.H
C:\PROGRAM FILES (X86)\MICROSOFT SDKS\WINDOWS\V7.0A\INCLUDE\INADDR.H
C:\PROGRAM FILES (X86)\MICROSOFT SDKS\WINDOWS\V7.0A\INCLUDE\QOS.H
C:\PROGRAM FILES (X86)\MICROSOFT SDKS\WINDOWS\V7.0A\INCLUDE\ZMOUSE.H
C:\PROGRAM FILES (X86)\MICROSOFT SDKS\WINDOWS\V7.0A\INCLUDE\COMMCTRL.H
C:\PROGRAM FILES (X86)\MICROSOFT SDKS\WINDOWS\V7.0A\INCLUDE\PRSHT.H
C:\PROGRAM FILES (X86)\MICROSOFT VISUAL STUDIO 10.0\VC\INCLUDE\TCHAR.H
C:\PROGRAM FILES (X86)\MICROSOFT VISUAL STUDIO 10.0\VC\INCLUDE\WCHAR.H
C:\PROGRAM FILES (X86)\MICROSOFT VISUAL STUDIO 10.0\VC\INCLUDE\SWPRINTF.INL
C:\PROGRAM FILES (X86)\MICROSOFT VISUAL STUDIO 10.0\VC\INCLUDE\WTIME.INL
C:\PROGRAM FILES (X86)\MICROSOFT VISUAL STUDIO 10.0\VC\INCLUDE\STDIO.H
C:\PROGRAM FILES (X86)\MICROSOFT VISUAL STUDIO 10.0\VC\INCLUDE\STDLIB.H
C:\PROGRAM FILES (X86)\MICROSOFT VISUAL STUDIO 10.0\VC\INCLUDE\LIMITS.H
C:\PROGRAM FILES (X86)\MICROSOFT VISUAL STUDIO 10.0\VC\INCLUDE\TIME.H
C:\PROGRAM FILES (X86)\MICROSOFT VISUAL STUDIO 10.0\VC\INCLUDE\TIME.INL
C:\PROGRAM FILES (X86)\MICROSOFT VISUAL STUDIO 10.0\VC\INCLUDE\STDDEF.H
C:\PROGRAM FILES (X86)\MICROSOFT VISUAL STUDIO 10.0\VC\INCLUDE\CRTDBG.H
C:\WINDDK\7600.16385.1\INC\MFC42\AFXCOLL.H
C:\WINDDK\7600.16385.1\INC\MFC42\AFXSTAT_.H
C:\WINDDK\7600.16385.1\INC\MFC42\AFXTLS_.H
C:\PROGRAM FILES (X86)\MICROSOFT SDKS\WINDOWS\V7.0A\INCLUDE\RPCSAL.H
C:\PROGRAM FILES (X86)\MICROSOFT SDKS\WINDOWS\V7.0A\INCLUDE\SHELLAPI.H
C:\WINDDK\7600.16385.1\INC\MFC42\AFXRES.H
C:\WINDDK\7600.16385.1\INC\MFC42\AFXMSG_.H
C:\WINDDK\7600.16385.1\INC\MFC42\AFXDD_.H
C:\PROGRAM FILES (X86)\MICROSOFT VISUAL STUDIO 10.0\VC\INCLUDE\MALLOC.H
C:\WINDDK\7600.16385.1\INC\MFC42\AFXEXT.H
C:\WINDDK\7600.16385.1\INC\MFC42\AFXDLGS.H
C:\PROGRAM FILES (X86)\MICROSOFT SDKS\WINDOWS\V7.0A\INCLUDE\COMMDLG.H
C:\PROGRAM FILES (X86)\MICROSOFT SDKS\WINDOWS\V7.0A\INCLUDE\RICHEDIT.H
C:\WINDDK\7600.16385.1\INC\MFC42\AFXCONV.H
C:\PROGRAM FILES (X86)\MICROSOFT SDKS\WINDOWS\V7.0A\INCLUDE\OBJBASE.H
C:\PROGRAM FILES (X86)\MICROSOFT SDKS\WINDOWS\V7.0A\INCLUDE\RPC.H
C:\PROGRAM FILES (X86)\MICROSOFT SDKS\WINDOWS\V7.0A\INCLUDE\RPCDCE.H
C:\PROGRAM FILES (X86)\MICROSOFT SDKS\WINDOWS\V7.0A\INCLUDE\RPCDCEP.H
C:\PROGRAM FILES (X86)\MICROSOFT SDKS\WINDOWS\V7.0A\INCLUDE\RPCNSI.H
C:\PROGRAM FILES (X86)\MICROSOFT SDKS\WINDOWS\V7.0A\INCLUDE\RPCNTERR.H
C:\PROGRAM FILES (X86)\MICROSOFT SDKS\WINDOWS\V7.0A\INCLUDE\RPCASYNC.H
C:\PROGRAM FILES (X86)\MICROSOFT SDKS\WINDOWS\V7.0A\INCLUDE\RPCNDR.H
C:\PROGRAM FILES (X86)\MICROSOFT SDKS\WINDOWS\V7.0A\INCLUDE\RPCNSIP.H
C:\PROGRAM FILES (X86)\MICROSOFT SDKS\WINDOWS\V7.0A\INCLUDE\WTYPES.H
C:\PROGRAM FILES (X86)\MICROSOFT SDKS\WINDOWS\V7.0A\INCLUDE\UNKNWN.H
C:\PROGRAM FILES (X86)\MICROSOFT SDKS\WINDOWS\V7.0A\INCLUDE\OLE2.H
C:\PROGRAM FILES (X86)\MICROSOFT SDKS\WINDOWS\V7.0A\INCLUDE\OLEAUTO.H
C:\PROGRAM FILES (X86)\MICROSOFT SDKS\WINDOWS\V7.0A\INCLUDE\OAIDL.H
C:\PROGRAM FILES (X86)\MICROSOFT SDKS\WINDOWS\V7.0A\INCLUDE\OBJIDL.H
C:\PROGRAM FILES (X86)\MICROSOFT SDKS\WINDOWS\V7.0A\INCLUDE\OLEIDL.H
C:\PROGRAM FILES (X86)\MICROSOFT SDKS\WINDOWS\V7.0A\INCLUDE\CGUID.H
C:\PROGRAM FILES (X86)\MICROSOFT SDKS\WINDOWS\V7.0A\INCLUDE\URLMON.H
C:\PROGRAM FILES (X86)\MICROSOFT SDKS\WINDOWS\V7.0A\INCLUDE\SERVPROV.H
C:\PROGRAM FILES (X86)\MICROSOFT SDKS\WINDOWS\V7.0A\INCLUDE\MSXML.H
C:\PROGRAM FILES (X86)\MICROSOFT SDKS\WINDOWS\V7.0A\INCLUDE\PROPIDL.H
C:\WINDDK\7600.16385.1\INC\ATL71\ATLCONV.H
C:\WINDDK\7600.16385.1\INC\ATL71\ATLDEF.H
C:\WINDDK\7600.16385.1\INC\ATL71\ATLRC.H
C:\PROGRAM FILES (X86)\MICROSOFT VISUAL STUDIO 10.0\VC\INCLUDE\ERRNO.H
C:\WINDDK\7600.16385.1\INC\ATL71\ATLALLOC.H
C:\WINDDK\7600.16385.1\INC\MFC42\AFXPRIV2.H
C:\PROGRAM FILES\SOLIDWORKS CORP\SOLIDWORKS\SAMPLES\APPCOMM\SWCONST.H
C:\PROGRAM FILES\SOLIDWORKS CORP\SOLIDWORKS\SAMPLES\APPCOMM\WIN32\SWCONST.H
D:\WORK\DOME\NATIVEPLUGINCODE\SOLIDWORKSPLUGINNEW\SWDISP.H
C:\WINDDK\7600.16385.1\INC\MFC42\AFXDISP.H
C:\PROGRAM FILES (X86)\MICROSOFT SDKS\WINDOWS\V7.0A\INCLUDE\OLECTL.H
C:\PROGRAM FILES (X86)\MICROSOFT SDKS\WINDOWS\V7.0A\INCLUDE\OCIDL.H
C:\PROGRAM FILES (X86)\MICROSOFT SDKS\WINDOWS\V7.0A\INCLUDE\SHLOBJ.H
C:\PROGRAM FILES (X86)\MICROSOFT SDKS\WINDOWS\V7.0A\INCLUDE\SHLGUID.H
C:\PROGRAM FILES (X86)\MICROSOFT SDKS\WINDOWS\V7.0A\INCLUDE\ISGUIDS.H
C:\PROGRAM FILES (X86)\MICROSOFT SDKS\WINDOWS\V7.0A\INCLUDE\EXDISP.H
C:\PROGRAM FILES (X86)\MICROSOFT SDKS\WINDOWS\V7.0A\INCLUDE\DOCOBJ.H
C:\PROGRAM FILES (X86)\MICROSOFT SDKS\WINDOWS\V7.0A\INCLUDE\SHLDISP.H
C:\PROGRAM FILES (X86)\MICROSOFT SDKS\WINDOWS\V7.0A\INCLUDE\KNOWNFOLDERS.H
C:\PROGRAM FILES (X86)\MICROSOFT SDKS\WINDOWS\V7.0A\INCLUDE\SHTYPES.H
C:\PROGRAM FILES (X86)\MICROSOFT SDKS\WINDOWS\V7.0A\INCLUDE\SHOBJIDL.H
C:\PROGRAM FILES (X86)\MICROSOFT SDKS\WINDOWS\V7.0A\INCLUDE\COMCAT.H
C:\PROGRAM FILES (X86)\MICROSOFT SDKS\WINDOWS\V7.0A\INCLUDE\PROPSYS.H
C:\PROGRAM FILES (X86)\MICROSOFT SDKS\WINDOWS\V7.0A\INCLUDE\STRUCTUREDQUERYCONDITION.H
C:\PROGRAM FILES (X86)\MICROSOFT SDKS\WINDOWS\V7.0A\INCLUDE\PROPKEYDEF.H
C:\PROGRAM FILES (X86)\MICROSOFT SDKS\WINDOWS\V7.0A\INCLUDE\OBJECTARRAY.H
C:\PROGRAM FILES (X86)\MICROSOFT SDKS\WINDOWS\V7.0A\INCLUDE\SHERRORS.H
^D:\WORK\DOME\NATIVEPLUGINCODE\SOLIDWORKSPLUGINNEW\JNIHELPER.CPP
D:\WORK\DOME\NATIVEPLUGINCODE\SOLIDWORKSPLUGIN\DEBUG\SOLIDWORKSPLUGIN.PCH
D:\JAVA\JDK-1.6.0.26\INCLUDE\JNI.H
C:\PROGRAM FILES (X86)\MICROSOFT VISUAL STUDIO 10.0\VC\INCLUDE\STDIO.H
C:\PROGRAM FILES (X86)\MICROSOFT VISUAL STUDIO 10.0\VC\INCLUDE\CRTDEFS.H
C:\PROGRAM FILES (X86)\MICROSOFT VISUAL STUDIO 10.0\VC\INCLUDE\SWPRINTF.INL
D:\JAVA\JDK-1.6.0.26\INCLUDE\WIN32\JNI_MD.H
C:\PROGRAM FILES (X86)\MICROSOFT VISUAL STUDIO 10.0\VC\INCLUDE\IOSTREAM
C:\PROGRAM FILES (X86)\MICROSOFT VISUAL STUDIO 10.0\VC\INCLUDE\ISTREAM
C:\PROGRAM FILES (X86)\MICROSOFT VISUAL STUDIO 10.0\VC\INCLUDE\OSTREAM
C:\PROGRAM FILES (X86)\MICROSOFT VISUAL STUDIO 10.0\VC\INCLUDE\IOS
C:\PROGRAM FILES (X86)\MICROSOFT VISUAL STUDIO 10.0\VC\INCLUDE\XLOCNUM
C:\PROGRAM FILES (X86)\MICROSOFT VISUAL STUDIO 10.0\VC\INCLUDE\CLIMITS
C:\PROGRAM FILES (X86)\MICROSOFT VISUAL STUDIO 10.0\VC\INCLUDE\YVALS.H
C:\PROGRAM FILES (X86)\MICROSOFT VISUAL STUDIO 10.0\VC\INCLUDE\USE_ANSI.H
C:\PROGRAM FILES (X86)\MICROSOFT VISUAL STUDIO 10.0\VC\INCLUDE\LIMITS.H
C:\PROGRAM FILES (X86)\MICROSOFT VISUAL STUDIO 10.0\VC\INCLUDE\CMATH
C:\PROGRAM FILES (X86)\MICROSOFT VISUAL STUDIO 10.0\VC\INCLUDE\MATH.H
C:\PROGRAM FILES (X86)\MICROSOFT VISUAL STUDIO 10.0\VC\INCLUDE\CSTDIO
C:\PROGRAM FILES (X86)\MICROSOFT VISUAL STUDIO 10.0\VC\INCLUDE\CSTDLIB
C:\PROGRAM FILES (X86)\MICROSOFT VISUAL STUDIO 10.0\VC\INCLUDE\STDLIB.H
C:\PROGRAM FILES (X86)\MICROSOFT VISUAL STUDIO 10.0\VC\INCLUDE\STREAMBUF
C:\PROGRAM FILES (X86)\MICROSOFT VISUAL STUDIO 10.0\VC\INCLUDE\XIOSBASE
C:\PROGRAM FILES (X86)\MICROSOFT VISUAL STUDIO 10.0\VC\INCLUDE\XLOCALE
C:\PROGRAM FILES (X86)\MICROSOFT VISUAL STUDIO 10.0\VC\INCLUDE\CSTRING
C:\PROGRAM FILES (X86)\MICROSOFT VISUAL STUDIO 10.0\VC\INCLUDE\STDEXCEPT
C:\PROGRAM FILES (X86)\MICROSOFT VISUAL STUDIO 10.0\VC\INCLUDE\EXCEPTION
C:\PROGRAM FILES (X86)\MICROSOFT VISUAL STUDIO 10.0\VC\INCLUDE\XSTDDEF
C:\PROGRAM FILES (X86)\MICROSOFT VISUAL STUDIO 10.0\VC\INCLUDE\CSTDDEF
C:\PROGRAM FILES (X86)\MICROSOFT VISUAL STUDIO 10.0\VC\INCLUDE\STDDEF.H
C:\PROGRAM FILES (X86)\MICROSOFT VISUAL STUDIO 10.0\VC\INCLUDE\EH.H
C:\PROGRAM FILES (X86)\MICROSOFT VISUAL STUDIO 10.0\VC\INCLUDE\MALLOC.H
C:\PROGRAM FILES (X86)\MICROSOFT VISUAL STUDIO 10.0\VC\INCLUDE\XSTRING
C:\PROGRAM FILES (X86)\MICROSOFT VISUAL STUDIO 10.0\VC\INCLUDE\XMEMORY
C:\PROGRAM FILES (X86)\MICROSOFT VISUAL STUDIO 10.0\VC\INCLUDE\NEW
C:\PROGRAM FILES (X86)\MICROSOFT VISUAL STUDIO 10.0\VC\INCLUDE\XUTILITY
C:\PROGRAM FILES (X86)\MICROSOFT VISUAL STUDIO 10.0\VC\INCLUDE\UTILITY
C:\PROGRAM FILES (X86)\MICROSOFT VISUAL STUDIO 10.0\VC\INCLUDE\IOSFWD
C:\PROGRAM FILES (X86)\MICROSOFT VISUAL STUDIO 10.0\VC\INCLUDE\CWCHAR
C:\PROGRAM FILES (X86)\MICROSOFT VISUAL STUDIO 10.0\VC\INCLUDE\WCHAR.H
C:\PROGRAM FILES (X86)\MICROSOFT VISUAL STUDIO 10.0\VC\INCLUDE\WTIME.INL
C:\PROGRAM FILES (X86)\MICROSOFT VISUAL STUDIO 10.0\VC\INCLUDE\CRTDBG.H
C:\PROGRAM FILES (X86)\MICROSOFT VISUAL STUDIO 10.0\VC\INCLUDE\TYPE_TRAITS
C:\PROGRAM FILES (X86)\MICROSOFT VISUAL STUDIO 10.0\VC\INCLUDE\LIMITS
C:\PROGRAM FILES (X86)\MICROSOFT VISUAL STUDIO 10.0\VC\INCLUDE\YMATH.H
C:\PROGRAM FILES (X86)\MICROSOFT VISUAL STUDIO 10.0\VC\INCLUDE\CFLOAT
C:\PROGRAM FILES (X86)\MICROSOFT VISUAL STUDIO 10.0\VC\INCLUDE\FLOAT.H
C:\PROGRAM FILES (X86)\MICROSOFT VISUAL STUDIO 10.0\VC\INCLUDE\CRTWRN.H
C:\PROGRAM FILES (X86)\MICROSOFT VISUAL STUDIO 10.0\VC\INCLUDE\XTR1COMMON
C:\PROGRAM FILES (X86)\MICROSOFT VISUAL STUDIO 10.0\VC\INCLUDE\XFWRAP
C:\PROGRAM FILES (X86)\MICROSOFT VISUAL STUDIO 10.0\VC\INCLUDE\XFWRAP1
C:\PROGRAM FILES (X86)\MICROSOFT VISUAL STUDIO 10.0\VC\INCLUDE\XXTYPE_TRAITS
C:\PROGRAM FILES (X86)\MICROSOFT VISUAL STUDIO 10.0\VC\INCLUDE\TYPEINFO
C:\PROGRAM FILES (X86)\MICROSOFT VISUAL STUDIO 10.0\VC\INCLUDE\XLOCINFO
C:\PROGRAM FILES (X86)\MICROSOFT VISUAL STUDIO 10.0\VC\INCLUDE\XLOCINFO.H
C:\PROGRAM FILES (X86)\MICROSOFT VISUAL STUDIO 10.0\VC\INCLUDE\LOCALE.H
C:\PROGRAM FILES (X86)\MICROSOFT VISUAL STUDIO 10.0\VC\INCLUDE\XDEBUG
C:\PROGRAM FILES (X86)\MICROSOFT VISUAL STUDIO 10.0\VC\INCLUDE\SYSTEM_ERROR
C:\PROGRAM FILES (X86)\MICROSOFT VISUAL STUDIO 10.0\VC\INCLUDE\CERRNO
C:\PROGRAM FILES (X86)\MICROSOFT VISUAL STUDIO 10.0\VC\INCLUDE\ERRNO.H
C:\PROGRAM FILES (X86)\MICROSOFT VISUAL STUDIO 10.0\VC\INCLUDE\SHARE.H
D:\WORK\DOME\NATIVEPLUGINCODE\SOLIDWORKSPLUGINNEW\JNIHELPER.H
C:\PROGRAM FILES (X86)\MICROSOFT SDKS\WINDOWS\V7.0A\INCLUDE\WINDOWS.H
C:\PROGRAM FILES (X86)\MICROSOFT VISUAL STUDIO 10.0\VC\INCLUDE\EXCPT.H
C:\PROGRAM FILES (X86)\MICROSOFT VISUAL STUDIO 10.0\VC\INCLUDE\SAL.H
C:\PROGRAM FILES (X86)\MICROSOFT VISUAL STUDIO 10.0\VC\INCLUDE\CODEANALYSIS\SOURCEANNOTATIONS.H
C:\PROGRAM FILES (X86)\MICROSOFT VISUAL STUDIO 10.0\VC\INCLUDE\VADEFS.H
C:\PROGRAM FILES (X86)\MICROSOFT VISUAL STUDIO 10.0\VC\INCLUDE\STDARG.H
C:\PROGRAM FILES (X86)\MICROSOFT SDKS\WINDOWS\V7.0A\INCLUDE\WINDEF.H
C:\PROGRAM FILES (X86)\MICROSOFT SDKS\WINDOWS\V7.0A\INCLUDE\WINNT.H
C:\PROGRAM FILES (X86)\MICROSOFT VISUAL STUDIO 10.0\VC\INCLUDE\CTYPE.H
C:\PROGRAM FILES (X86)\MICROSOFT SDKS\WINDOWS\V7.0A\INCLUDE\SPECSTRINGS.H
C:\PROGRAM FILES (X86)\MICROSOFT SDKS\WINDOWS\V7.0A\INCLUDE\SAL_SUPP.H
C:\PROGRAM FILES (X86)\MICROSOFT SDKS\WINDOWS\V7.0A\INCLUDE\SPECSTRINGS_SUPP.H
C:\PROGRAM FILES (X86)\MICROSOFT SDKS\WINDOWS\V7.0A\INCLUDE\SPECSTRINGS_STRICT.H
C:\PROGRAM FILES (X86)\MICROSOFT SDKS\WINDOWS\V7.0A\INCLUDE\SPECSTRINGS_UNDEF.H
C:\PROGRAM FILES (X86)\MICROSOFT SDKS\WINDOWS\V7.0A\INCLUDE\DRIVERSPECS.H
C:\PROGRAM FILES (X86)\MICROSOFT SDKS\WINDOWS\V7.0A\INCLUDE\SDV_DRIVERSPECS.H
C:\PROGRAM FILES (X86)\MICROSOFT SDKS\WINDOWS\V7.0A\INCLUDE\KERNELSPECS.H
C:\PROGRAM FILES (X86)\MICROSOFT SDKS\WINDOWS\V7.0A\INCLUDE\BASETSD.H
C:\PROGRAM FILES (X86)\MICROSOFT SDKS\WINDOWS\V7.0A\INCLUDE\GUIDDEF.H
C:\PROGRAM FILES (X86)\MICROSOFT VISUAL STUDIO 10.0\VC\INCLUDE\STRING.H
C:\PROGRAM FILES (X86)\MICROSOFT SDKS\WINDOWS\V7.0A\INCLUDE\PSHPACK4.H
C:\PROGRAM FILES (X86)\MICROSOFT SDKS\WINDOWS\V7.0A\INCLUDE\POPPACK.H
C:\PROGRAM FILES (X86)\MICROSOFT SDKS\WINDOWS\V7.0A\INCLUDE\PSHPACK2.H
C:\PROGRAM FILES (X86)\MICROSOFT SDKS\WINDOWS\V7.0A\INCLUDE\PSHPACK8.H
C:\PROGRAM FILES (X86)\MICROSOFT SDKS\WINDOWS\V7.0A\INCLUDE\KTMTYPES.H
C:\PROGRAM FILES (X86)\MICROSOFT SDKS\WINDOWS\V7.0A\INCLUDE\WINBASE.H
C:\PROGRAM FILES (X86)\MICROSOFT SDKS\WINDOWS\V7.0A\INCLUDE\WINERROR.H
C:\PROGRAM FILES (X86)\MICROSOFT SDKS\WINDOWS\V7.0A\INCLUDE\WINGDI.H
C:\PROGRAM FILES (X86)\MICROSOFT SDKS\WINDOWS\V7.0A\INCLUDE\PSHPACK1.H
C:\PROGRAM FILES (X86)\MICROSOFT SDKS\WINDOWS\V7.0A\INCLUDE\WINUSER.H
C:\PROGRAM FILES (X86)\MICROSOFT SDKS\WINDOWS\V7.0A\INCLUDE\TVOUT.H
C:\PROGRAM FILES (X86)\MICROSOFT SDKS\WINDOWS\V7.0A\INCLUDE\WINNLS.H
C:\PROGRAM FILES (X86)\MICROSOFT SDKS\WINDOWS\V7.0A\INCLUDE\WINCON.H
C:\PROGRAM FILES (X86)\MICROSOFT SDKS\WINDOWS\V7.0A\INCLUDE\WINVER.H
C:\PROGRAM FILES (X86)\MICROSOFT SDKS\WINDOWS\V7.0A\INCLUDE\VERRSRC.H
C:\PROGRAM FILES (X86)\MICROSOFT SDKS\WINDOWS\V7.0A\INCLUDE\WINREG.H
C:\PROGRAM FILES (X86)\MICROSOFT SDKS\WINDOWS\V7.0A\INCLUDE\REASON.H
C:\PROGRAM FILES (X86)\MICROSOFT SDKS\WINDOWS\V7.0A\INCLUDE\WINNETWK.H
C:\PROGRAM FILES (X86)\MICROSOFT SDKS\WINDOWS\V7.0A\INCLUDE\WNNC.H
C:\PROGRAM FILES (X86)\MICROSOFT SDKS\WINDOWS\V7.0A\INCLUDE\STRALIGN.H
C:\PROGRAM FILES (X86)\MICROSOFT SDKS\WINDOWS\V7.0A\INCLUDE\WINSVC.H
C:\PROGRAM FILES (X86)\MICROSOFT SDKS\WINDOWS\V7.0A\INCLUDE\MCX.H
C:\PROGRAM FILES (X86)\MICROSOFT SDKS\WINDOWS\V7.0A\INCLUDE\IMM.H
C:\PROGRAM FILES (X86)\MICROSOFT SDKS\WINDOWS\V7.0A\INCLUDE\IME_CMODES.H
