^D:\WORK\DOME\NATIVEPLUGINCODE\SOLIDWORKSPLUGIN\STDAFX.CPP
D:\WORK\DOME\NATIVEPLUGINCODE\SOLIDWORKSPLUGIN\DEBUG\SOLIDWORKSPLUGIN.PCH
D:\WORK\DOME\NATIVEPLUGINCODE\SOLIDWORKSPLUGIN\DEBUG\STDAFX.OBJ
D:\WORK\DOME\NATIVEPLUGINCODE\SOLIDWORKSPLUGIN\DEBUG\VC100.PDB
^D:\WORK\DOME\NATIVEPLUGINCODE\SOLIDWORKSPLUGINNEW\JNIHELPER.CPP|D:\WORK\DOME\NATIVEPLUGINCODE\SOLIDWORKSPLUGINNEW\SOLIDWORKSDATA.CPP|D:\WORK\DOME\NATIVEPLUGINCODE\SOLIDWORKSPLUGINNEW\SOLIDWORKSDELEGATE.CPP|D:\WORK\DOME\NATIVEPLUGINCODE\SOLIDWORKSPLUGINNEW\SOLIDWORKSMODEL.CPP|D:\WORK\DOME\NATIVEPLUGINCODE\SOLIDWORKSPLUGINNEW\SOLIDWORKSPLUGINCALLER.CPP|D:\WORK\DOME\NATIVEPLUGINCODE\SOLIDWORKSPLUGINNEW\SWDISP.CPP
D:\WORK\DOME\NATIVEPLUGINCODE\SOLIDWORKSPLUGIN\DEBUG\JNIHELPER.OBJ
D:\WORK\DOME\NATIVEPLUGINCODE\SOLIDWORKSPLUGIN\DEBUG\SWDISP.OBJ
^D:\WORK\DOME\NATIVEPLUGINCODE\SOLIDWORKSPLUGINNEW\JNIHELPER.CPP
D:\WORK\DOME\NATIVEPLUGINCODE\SOLIDWORKSPLUGIN\DEBUG\VC100.PDB
^D:\WORK\DOME\NATIVEPLUGINCODE\SOLIDWORKSPLUGINNEW\SOLIDWORKSDATA.CPP
D:\WORK\DOME\NATIVEPLUGINCODE\SOLIDWORKSPLUGIN\DEBUG\VC100.PDB
^D:\WORK\DOME\NATIVEPLUGINCODE\SOLIDWORKSPLUGINNEW\SOLIDWORKSDELEGATE.CPP
D:\WORK\DOME\NATIVEPLUGINCODE\SOLIDWORKSPLUGIN\DEBUG\VC100.PDB
^D:\WORK\DOME\NATIVEPLUGINCODE\SOLIDWORKSPLUGINNEW\SOLIDWORKSMODEL.CPP
D:\WORK\DOME\NATIVEPLUGINCODE\SOLIDWORKSPLUGIN\DEBUG\VC100.PDB
^D:\WORK\DOME\NATIVEPLUGINCODE\SOLIDWORKSPLUGINNEW\SOLIDWORKSPLUGINCALLER.CPP
D:\WORK\DOME\NATIVEPLUGINCODE\SOLIDWORKSPLUGIN\DEBUG\VC100.PDB
^D:\WORK\DOME\NATIVEPLUGINCODE\SOLIDWORKSPLUGINNEW\SWDISP.CPP
D:\WORK\DOME\NATIVEPLUGINCODE\SOLIDWORKSPLUGIN\DEBUG\VC100.PDB
^D:\WORK\DOME\NATIVEPLUGINCODE\SOLIDWORKSPLUGINNEW\SOLIDWORKSDATA.CPP|D:\WORK\DOME\NATIVEPLUGINCODE\SOLIDWORKSPLUGINNEW\SOLIDWORKSDELEGATE.CPP|D:\WORK\DOME\NATIVEPLUGINCODE\SOLIDWORKSPLUGINNEW\SOLIDWORKSMODEL.CPP|D:\WORK\DOME\NATIVEPLUGINCODE\SOLIDWORKSPLUGINNEW\SOLIDWORKSPLUGINCALLER.CPP
